
#Age of Greentide
age_of_discovery = {
	start = 1400
	
	can_start = {
		always = yes
	}
	
	religious_conflicts = yes
	

	objectives = {
		obj_discover_aelantir = {
			allow = {
				capital_scope = {
					OR = {
						continent = europe
						continent = asia
						continent = africa
					}
				}
			}
			custom_trigger_tooltip = {
				tooltip = obj_discover_america_tooltip
					OR = {
						north_america = { has_discovered = ROOT }
						south_america = { has_discovered = ROOT }
						new_world = { has_discovered = ROOT }
					}
				}
		}
		
		obj_greentide_aftermath = {
			num_of_owned_provinces_with = {
				value = 5
				OR = {
					region = west_castanor_region
					region = south_castanor_region
					region = inner_castanor_region
				}
				NOT = { culture_group = orcish }
				NOT = { culture_group = goblin }
			}
		}
		
		# obj_100_development_2 = {
			# allow = {
				# # capital_scope = {
					# # NOT = {
						# # continent = europe
						# # continent = asia
						# # continent = africa
					# # }
				# # }
			# }
			# total_development = 200
		# }
		
		obj_5_centers_of_trade = {
			calc_true_if = {
				all_owned_province = {
					OR = {
						province_has_center_of_trade_of_level = 2
						province_has_center_of_trade_of_level = 3
					}
					controlled_by = owner
					is_core = ROOT
				}
				amount = 5
			}
		}
		
		
		obj_renaissance = {
	 		has_institution = renaissance
	 		all_state_province = {
	 			renaissance = 100
	 		}
		}
		
		obj_two_unions = {
			allow = {
				religion_group = cannorian
			}
			personal_union  = 2
		}
		
		obj_many_vassals = {
			allow = {
				#NOT = { religion_group = cannorian }
			}
			vassal = 5
		}		
	
		obj_humiliate_rival = {
			custom_trigger_tooltip = {
				tooltip = obj_humiliate_rival_tooltip
				has_country_flag = humiliated_rival
			}
		}
	}		
	
	abilities = {
		#PROBABLY OK
		ab_allow_feudal_de_jure_law = {
			effect = {
				custom_tooltip = feudal_de_jure_law
				set_country_flag = feudal_de_jure_law
			}
			ai_will_do = {
				factor = 10
			}
		}
		
		ab_justified_wars = {
			modifier = {
				ae_impact = -0.1
			}
			ai_will_do = {
				factor = 10
			}			
		}
		
		ab_transfer_vassal_wargoal = 
		{
			rule = {
				can_transfer_vassal_wargoal = yes
				can_chain_claim = yes
			}
			ai_will_do = {
				factor = 10
			}
		}
		
		ab_free_war_taxes = {
			modifier = {
				war_taxes_cost_modifier = -1.0
			}
			ai_will_do = {
				factor = 10
			}	
		}
		
		ab_cavalry_armies = {
			modifier = {
				cav_to_inf_ratio = 0.2
			}
			ai_will_do = {
				factor = 10
			}
		}
		
		ab_colony_boost_development = {
			rule = {
				can_colony_boost_development = yes
			}
			ai_will_do = {
				factor = 10
				modifier = {
					factor = 0
					AND = {
						NOT = { num_of_colonists = 1 }
						any_owned_province = {
							OR = {
								region = west_castanor_region
								region = south_castanor_region
								region = inner_castanor_region
							}
						}
					}
				}
			}
		}
		
		ab_attack_bonus_in_capital_terrain = {
			rule = {
				attack_bonus_in_capital_terrain = yes
			}
			ai_will_do = {
				factor = 10
				modifier = {
					factor = 5
					primary_culture = wood_elf
				}
			}
		}
		
		ab_veterans_of_the_lilac_wars = {
			allow = {
				capital_scope = { continent = europe }
			}
			modifier = {
				manpower_recovery_speed = 0.35
			}
			ai_will_do = {
				factor = 10
			}
		}
		
		ab_greentide_settlers = {
			allow = {
				OR = {
					capital_scope = { region = west_castanor_region }
					capital_scope = { region = south_castanor_region }
					capital_scope = { region = inner_castanor_region }
					capital_scope = { area = cursewood_area }
					capital_scope = { area = whistlevale_area }
				}
			}
			modifier = {
				global_colonial_growth = 50
			}
			ai_will_do = {
				factor = 10
			}
		}
		
		ab_anbennar_decentralization_of_the_empire = {
			allow = {
				is_part_of_hre = yes
			}
			modifier = {
				ae_impact = -0.25
			}
			ai_will_do = {
				factor = 10
			}
		}
		
		ab_eborthil_ship_trade = {
			allow = {
				tag = A47
			}
			modifier = {
				global_ship_trade_power = 0.5 
			}
			ai_will_do = {
				factor = 100
			}
		}
	}
}

#Age of Unraveling
age_of_reformation = {
	start = 1530
	
	can_start = {
		#is_religion_enabled = corinite
		#After Greentide region is fine 
		OR = {
			has_global_flag = "castellos_is_dead" 
			is_year = 1560	#in case castellos never dies
		}
	}
	#What if Ravelianism starts in Aelantir? if so in general they should rise from coastal provinces too and those facing west
	#Ravelianism could be more popular with the urban class? Peasants like the simplicity of the gods but historically christianity liked peasants
	
	religious_conflicts = yes
	
	objectives = {
	
		obj_cannorian_convert = {
			OR = {
				religion = corinite
				religion = ravelian
			}
		}
		
		obj_foothold_in_aelantir = {
			any_owned_province = {
				OR = {
					continent = north_america
					continent = south_america
				}
			}
			NOT = {
				capital_scope = { continent = north_america }
				capital_scope = { continent = south_america }
			}
		}
		
		obj_convert_10_provinces = {
			custom_trigger_tooltip = {
				tooltip = obj_convert_10_provinces_tooltip
				check_variable = { which = num_converted_religion value = 10 }
			}
		}
		
		obj_colonial_empire = {
			colony = 5
		}
		
		obj_force_converted = {
			custom_trigger_tooltip = {
				tooltip = obj_force_converted_tooltip
				has_country_flag = force_converted
			}
		}
		
		obj_30_development_city = {
			custom_trigger_tooltip = {
				tooltip = obj_30_development_city_tooltip
				any_owned_province = {
					is_core = ROOT
					controlled_by = owner
					development = 30
				}
			}
		}
		
		obj_two_continents = {
			num_of_continents = 2
		}
	}	
	
	abilities = {
	
		ab_allow_religion_enforced = {
			effect = {
				custom_tooltip = religion_enforced_edict
				set_country_flag = religion_enforced_edict
			}
			ai_will_do = {
				factor = 0
			}
		}
		
		ab_siege_blockades = {
			modifier = {
				siege_blockade_progress = 1
			}
			ai_will_do = {
				factor = 10
				modifier = {
					factor = 0
					NOT = {
							num_of_ports = 5
					}
				}

			}
		}
		
		ab_warscore_vs_religion = {
			modifier = {
				warscore_cost_vs_other_religion = -0.25
			}
			ai_will_do = {
				factor = 10
			}
		}
		
		ab_ship_power_propagation = {
			modifier = {
				ship_power_propagation = 0.2
			}
			ai_will_do = {
				factor = 10
			}
		}
		
		ab_institution_spread_from_true_faith = {
			modifier = {
				institution_spread_from_true_faith = 0.5
			}
			ai_will_do = {
				factor = 10
			}
		}
		
		ab_prestige_per_development_from_conversion = {
			modifier = {
				prestige_per_development_from_conversion = 0.3
			}
			ai_will_do = {
				factor = 10
			}
		}
		
		ab_adventurer_armies = {
			modifier = {
				mercenary_manpower = 0.5
				merc_maintenance_modifier = -0.33
			}
			ai_will_do = {
				factor = 10
			}
		}

		ab_call_of_the_high_seas = {
			modifier = {
				heavy_ship_cost = -0.5
				light_ship_cost = -0.5
			}
			ai_will_do = {
				factor = 10
			}
		}
		
		ab_aelantir_rush = {
			allow = {
				num_of_colonists = 1
				
				OR = {
					num_of_provinces_owned_or_owned_by_non_sovereign_subjects_with = {
						value = 1
						continent = north_america
					}
					num_of_provinces_owned_or_owned_by_non_sovereign_subjects_with = {
						value = 1
						continent = south_america
					}
				}
			}
			modifier = {
				global_colonial_growth = 100
			}
			ai_will_do = {
				factor = 10
				modifier = {
					factor = 0
					NOT = {
						num_of_colonists = 1
					}
				}
				modifier = {
					factor = 5
					has_idea_group = expansion_ideas
				}
				modifier = {
					factor = 2
					has_idea_group = exploration_ideas
				}
			}
		}
		
		ab_elven_reclaimers = {
			allow = {
				culture_group = elven
			}
			modifier = {
				global_colonial_growth = 60
				prestige = 0.5
			}
			ai_will_do = {
				factor = 100
			}
		}
		
		ab_corinite_crusaders = {
			allow = {
				religion = corinite
			}
			modifier = {
				shock_damage = 0.3
			}
			ai_will_do = {
				factor = 100
			}
		}
		
	}
	
	
	

	
}

age_of_absolutism = {
	start = 1620
	
	can_start = {
		is_institution_enabled = global_trade
	}
	
	papacy = 1.5
	
	absolutism = {
		harsh_treatment = 1
		stability = 1
		decrease_autonomy_command = 1
		strengthen_government = 2
		
		increase_autonomy_command = -2
		debase_currency = -1
		execute_rebel_acceptance_command = -10
		seat_in_parliament = -3
		war_exhaustion = -1
	}
	
	religious_conflicts = yes
	
	
	absolutism = {
		harsh_treatment = 1
		stability = 1
		decrease_autonomy_command = 1
		strengthen_government = 2
		
		increase_autonomy_command = -2
		debase_currency = -1
		execute_rebel_acceptance_command = -10
		seat_in_parliament = -3
		war_exhaustion = -1
	}
	
	
	
	objectives = {
		obj_3_trade_companies = {
			num_of_trade_companies = 3
		}
		
		obj_universities = {
			university = 5
		}
	
		obj_large_forcelimit = {
			land_forcelimit = 200
		}
		
		obj_90_absolutism = {
			absolutism = 90
		}
		
		obj_mage_ruler = {
			ruler_has_personality = mage_personality
		}
		
		obj_emperor_2 = {
			OR = {	
				is_emperor = yes
				government_rank = 3
				is_emperor_of_china = yes
			}
		}
		
		obj_win_religious_war = {
			custom_trigger_tooltip = {
				tooltip = obj_religious_league_war_on_winning_side_tooltip
				has_country_flag = religious_league_war_on_winning_side
			}
			
		}
	}	
	
	
	
	
	abilities = {
	
		ab_allow_edict_of_absolutism = {
			effect = {
				custom_tooltip = edict_of_absolutism_tt
				set_country_flag = edict_of_absolutism
			}
			ai_will_do = {
				factor = 10
			}
		}

		ab_rival_change = {
			modifier = {
				rival_change_cost = -0.5
			}
			ai_will_do = {
				factor = 0
			}
		}

		ab_rival_border_fort = {
			modifier = {
				rival_border_fort_maintenance = -1.0
			}
			ai_will_do = {
				factor = 10
			}
		}


		ab_autonomy = {
			modifier = {
				autonomy_change_time = -0.5
			}
			ai_will_do = {
				factor = 10
			}
		}


		ab_harsh_treatment = {
			modifier = {
				harsh_treatment_cost = -0.5
			}
			ai_will_do = {
				factor = 10
			}
		}

	
		ab_adm_efficiency = {
			modifier = {
				administrative_efficiency = 0.05
			}
			ai_will_do = {
				factor = 10
			}
		}

		ab_yearly_absolutism = {
			modifier = {
				yearly_absolutism = 1
			}
			ai_will_do = {
				factor = 100
			}
		}
	
	
		ab_direct_rule_in_escann = {
			allow = {
				OR = {
					capital_scope = { region = west_castanor_region}
					capital_scope = { region = south_castanor_region}
					capital_scope = { region = inner_castanor_region}
				}
			}
			modifier = {
				yearly_absolutism = 2
				max_absolutism = 10
			}
			ai_will_do = {
				factor = 1000
			}
		}
		
		ab_decadent_web_of_lies = {
			allow = {
				capital_scope = { continent = europe }
			}
			modifier = {
				diplomatic_upkeep = 1
				spy_offence = 0.25
			}
			ai_will_do = {
				factor = 10
			}
		}	
		
		ab_escanni_consolidation_wars = {
			allow = {
				OR = {
					capital_scope = { region = west_castanor_region}
					capital_scope = { region = south_castanor_region}
					capital_scope = { region = inner_castanor_region}
				}
			}
			modifier = {
				unjustified_demands = -0.5
			}
			ai_will_do = {
				factor = 100
			}
		}
		
		# ab_ravelian_zeal = {
			# allow = {
				# religion = ravelian
			# }
			# modifier = {
				# global_missionary_strength = 0.02
				# tolerance_own = 1
				# land_morale = 0.05
			# }
			# ai_will_do = {
				# factor = 100
			# }
		# }

		ab_dwarven_reclamation = {
			allow = {
				culture_group = dwarven
			}
			modifier = {
				colonists = 1
				global_colonial_growth = 30
			}
			ai_will_do = {
				factor = 100
			}
		}
	}
}

age_of_revolutions = {
	start = 1710
	
	can_start = {
		is_institution_enabled = enlightenment
	}
	
	papacy = 2.0
	absolutism = {
		harsh_treatment = 1
		stability = 1
		decrease_autonomy_command = 1
		strengthen_government = 2
		
		increase_autonomy_command = -2
		debase_currency = -1
		execute_rebel_acceptance_command = -10
		seat_in_parliament = -3
		war_exhaustion = -1
	}
	
	
	objectives = {
		obj_parliament = {
			has_parliament = yes
		}
		
		obj_cultures_accepted = {
			num_accepted_cultures = 5
		}
		
		obj_large_subject = {
			any_subject_country = {
				total_development = 250
			}
		}
		
		obj_disc_army = {
			has_global_modifier_value = {
				which = discipline
				value = 0.25
				extra_shortcut = yes
			}
		}
		
		obj_huge_capital = {
			capital_scope = {
				development = 50
			}
		}
		
		obj_great_general = {
			has_commanding_three_star = yes
		}
	
		obj_two_institutions = {
			num_of_owned_and_controlled_institutions = 2
		}
	}

	abilities = {

		ab_allow_anti_revolutionary_zeal = {
			modifier = {
				liberty_desire_from_subject_development = -0.33
			}
			ai_will_do = {
				factor = 15
				modifier = {
					factor = 0
					NOT = {
						any_subject_country = {
							liberty_desire = 30
						}
					}
				}
			}
		}

		ab_fortbreaker_inventions = {	#Napoleonic Warfare
			modifier = {
				artillery_bonus_vs_fort = 3
			}
			ai_will_do = {
				factor = 10
			}
		}
		

		
		ab_force_march = {
			rule = {
				force_march_free = yes
			}
			ai_will_do = {
				factor = 10
			}
		}
		ab_more_ships_can_fire = {
			modifier = {
				global_naval_engagement_modifier = 0.20
			}
			ai_will_do = {
				factor = 10
			}
		}
		ab_no_distance_for_core = {
			rule = {
				ignore_coring_distance = yes
			}
			ai_will_do = {
				factor = 10
			}
		}
		
		ab_backrow_artillery = {
			modifier = {
				backrow_artillery_damage = 0.20
			}
			ai_will_do = {
				factor = 10
			}
		}
		ab_same_contine_lib_desire = {
			modifier = {
				reduced_liberty_desire_on_same_continent = 25
			}
			ai_will_do = {
				factor = 15
				modifier = {
					factor = 0
					NOT = {
						any_subject_country = {
							liberty_desire = 30
							same_continent = ROOT
						}
					}
				}
			}
		}
		ab_artificer_machinations_of_war = {
			modifier = {
				fire_damage = 0.25
			}
			ai_will_do = {
				factor = 100
			}
		}
		ab_magical_industrialization = {
			modifier = {
				production_efficiency = 0.15
			}
			ai_will_do = {
				factor = 100
			}
		}
		ab_anbennarian_resurgence = {
			allow = {
				tag = Z01
			}
			modifier = {
				fire_damage_received = -0.33
				global_unrest = -1
			}
			ai_will_do = {
				factor = 100
			}
		}
		ab_orcish_nation = {
			allow = {
				culture_group = orcish
			}
			modifier = {
				development_cost = -0.25
				defensiveness = 0.5
			}
			ai_will_do = {
				factor = 100
			}
		}
	}
}