# No previous file for Napochi
owner = G76
controller = G76
add_core = G76
culture = yodhanpir
religion = gods_of_the_taychend
capital = ""

hre = no

base_tax = 2
base_production = 1
base_manpower = 1

trade_goods = tea

1443.1.1 = {	
	owner = G52
	controller = G52
	add_core = G52
}