#476 - Kypshak

owner = F01
controller = F01
add_core = F01
culture = kheteratan
religion = khetist

hre = no

base_tax = 3
base_production = 3
base_manpower = 3

trade_goods = cotton

capital = ""

is_city = yes








