#535 - Tenkar

owner = F15
controller = F15
add_core = F15
add_core = F19
culture = sun_elf
religion = bulwari_sun_cult

base_tax = 2
base_production = 2
base_manpower = 2

trade_goods = wine

capital = ""











add_nationalism = 10

add_permanent_province_modifier = {
	name = human_minority_coexisting_large
	duration = -1
}
