#919 - Rhinmond

owner = A48
controller = A48
add_core = A48
culture = wexonard
religion = regent_court

hre = yes

base_tax = 5
base_production = 5
base_manpower = 5

trade_goods = grain

capital = ""

is_city = yes











