namespace = unraveling

# Rediscovery of Aelantir!
country_event = {
	id = unraveling.0
	title = unraveling.0.t
	desc = unraveling.0.d
	picture = COLONIZATION_eventPicture
	
	
	fire_only_once = yes
	
	trigger = {
		NOT = { has_global_flag = new_world_discovered }
		# OR = {
			# AND = {
				# tag = CAS
				# NOT = { exists = SPA }
			# }
			# tag = SPA
		# }
		OR = {
			north_america = {
				has_discovered = ROOT
			}
			south_america = {
				has_discovered = ROOT
			}
			new_world = {
				has_discovered = ROOT
			}
		}
		capital_scope = { continent = europe }	#just to be safe!
	}

	mean_time_to_happen = {
		months = 1
	}
	
	immediate = {
		set_global_flag = new_world_discovered
	}

	option = {		# Now so have we!
		name = "flavor_spa.EVTOPTA1005"
		add_prestige = 50
		add_innovativeness_small_effect = yes
	}
}

# Castellos is Dead - Finding
country_event = {
	id = unraveling.1
	title = unraveling.1.t
	desc = unraveling.1.d
	picture = COMET_SIGHTED_eventPicture
	
	fire_only_once = yes
	
	trigger = {
		has_global_flag = new_world_discovered
		is_year = 1510	
		
		any_owned_province = {
			#limit = {
				OR = {
					continent = north_america
					continent = south_america
				}
		#	}
			owner = {
				capital_scope = { 
					continent = europe
				}
			}
		}
	}
	
	mean_time_to_happen = {
		months = 240
	}

	option = {
		name = "unraveling.1.a"	#Everyone must know of our findings!
		ai_chance = {
			factor = 50
			modifier = {
				factor = 1000
				OR = {
					ruler_has_personality = loose_lips_personality	#well yeah
				}
			}
			modifier = {
				factor = 10
				NOT = { religion = regent_court } #they dont care about it
			}
			modifier = {
				factor = 2
				OR = {
					ruler_has_personality = free_thinker_personality
					ruler_has_personality = scholar_personality
					ruler_has_personality = babbling_buffoon_personality
					ruler_has_personality = naive_personality
				}
			}

		}
		add_prestige = 10
		custom_tooltip = ct_hiding_castellos_is_dead.1
		
		hidden_effect = {
			every_country = {
				limit = {
					capital_scope = { continent = europe }
				}
				country_event = { id = unraveling.3 days = 7 random = 14 }	#Triggers global event for everyone
			}
		}
	}
	
	option = {
		name = "unraveling.1.b"	#We need to keep this secret as much as we can.
		ai_chance = {
			factor = 50
			modifier = {
				factor = 1000
				OR = {
					ruler_has_personality = secretive_personality
				}
			}
			modifier = {
				factor = 2
				OR = {
					ruler_has_personality = careful_personality
					ruler_has_personality = calm_personality
				}
			}
		}
		set_country_flag  = "hiding_castellos_is_dead" 
		custom_tooltip = ct_hiding_castellos_is_dead.2
	}
}

# Castellos is Dead - Keep it hidden but its out now
country_event = {
	id = unraveling.2
	title = unraveling.2.t
	desc = unraveling.2.d
	picture = COMET_SIGHTED_eventPicture
	
	fire_only_once = yes
	
	trigger = {
		has_country_flag = "hiding_castellos_is_dead"
	}
	
	mean_time_to_happen = {
		months = 120
		
		modifier = {
			factor = 0.1
			OR = {
				has_institution = printing_press
			}
		}
	}

	option = {
		name = "unraveling.2.a"	#The cat's out of the bag
		
		reduce_stability_or_adm_power = yes

		hidden_effect = {
			every_country = {
				limit = {
					capital_scope = { continent = europe }
				}
				country_event = { id = unraveling.3 days = 14 random = 168 }
			}
		}
	}
}

# Castellos is Dead - Event for Everyone -3 Stab
country_event = {
	id = unraveling.3
	title = unraveling.3.t
	desc = unraveling.3.d
	picture = COMET_SIGHTED_eventPicture
	
	is_triggered_only = yes
	
	immediate = {
		hidden_effect = {
			set_global_flag = "castellos_is_dead" 
		}
	}

	option = {
		name = "unraveling.3.a"	#What other secrets does Aelantir hold? The Age of Unraveling has begun.
		if = {
			limit = {
				religion = regent_court
			}
			add_stability = -2
			custom_tooltip = tooltip_remove_castellos_personal_deity
		}
		
	}
}