########################################
# Raj Events                         #
########################################

namespace = rahenraj

country_event = {
	id = rahenraj.0
	title = rahenraj.0.t
	desc = rahenraj.0.d
	picture = COURT_eventPicture

	is_triggered_only = yes
	fire_only_once = yes
	
	trigger = { tag = R51 }
	
	option = {
		name = rahenraj.0.a
		
		add_corruption = 10
	}
}

# The DYNASTYNAME raja_reform has fallen!
province_event = {
	id = rahenraj.1
	title = rahenraj.1.t
	picture = COURT_eventPicture
	
	major = yes
	is_triggered_only = yes
	
	desc = {
		trigger = {
			owner = { has_reform = raja_reform }
			FROM = {
				has_reform = raja_reform
			}
		}
		desc = rahenraj.1.da
	}
	
	desc = {
		trigger = {
			owner = { has_reform = raja_reform }
			FROM = {
				NOT = { has_reform = raja_reform }
			}
		}
		desc = rahenraj.1.db
	}
	
	desc = {
		trigger = {
			owner = {
				NOT = { has_reform = raja_reform }
			}
		}
		desc = rahenraj.1.db
	}
	
	trigger = {
		province_id = 4411
	}
	

	immediate = {
		hidden_effect = {
			owner = {
				if = {
					limit = {
						OR = {
							has_reform = jamindar_reform
							has_reform = great_jamindar_reform
							has_reform = indep_jamindar_reform
						}
					}
					add_core = 4411
					set_capital = 4411
					add_government_reform = raja_reform
					save_event_target_as = new_shogunate
				}
			}
		}
	}
	
	option = {
		name = rahenraj.1.aa
		if = {
			limit = {
				owner = { has_reform = raja_reform }
			}
			custom_tooltip = claiming_the_shogunate_tooltip
		}
		hidden_effect = {
			if = {
				limit = {
					FROM = { exists = yes }
					owner = { has_reform = raja_reform }
					FROM = { has_reform = raja_reform }
				}
				event_target:new_shogunate = {
					country_event = {
						id = rahenraj.1001
						days = 5
					}
				}
				FROM = {
					free_vassal = PREV
				}
				FROM = {
					every_subject_country = {
						limit = {
							OR = {
								has_reform = jamindar_reform
								has_reform = great_jamindar_reform
								has_reform = indep_jamindar_reform
							}
							NOT = { war_with = event_target:new_shogunate }
						}
						event_target:new_shogunate = {
							vassalize = PREV
						}
					}
					every_subject_country = {
						limit = {
							OR = {
								has_reform = jamindar_reform
								has_reform = great_jamindar_reform
								has_reform = indep_jamindar_reform
							}
							war_with = event_target:new_shogunate
						}
						from = {
							free_vassal = prev
						}
						if = {
							limit = {
								NOT = { has_reform = indep_jamindar_reform }
							}
							add_government_reform = indep_jamindar_reform
						}
					}
					add_government_reform = indep_jamindar_reform
				}
			}
			if = {
				limit = {
					FROM = { exists = yes }
					NOT = { owner = { has_reform = raja_reform } }
					FROM = { has_reform = raja_reform }
				}
				FROM = {
					every_subject_country = {
						limit = {
							OR = {
								has_reform = jamindar_reform
								has_reform = great_jamindar_reform
								has_reform = indep_jamindar_reform
							}
						}
						FROM = {
							free_vassal = PREV
						}
					}
					add_government_reform = indep_jamindar_reform
				}
			}
			if = {
				limit = {
					NOT = { FROM = { exists = yes } }
					owner = { has_reform = raja_reform }
				}
				event_target:new_shogunate = {
					country_event = {
						id = rahenraj.1001
						days = 5
					}
				}
				every_country = {
					limit = {
						OR = {
							has_reform = jamindar_reform
							has_reform = great_jamindar_reform
						}
						NOT = { war_with = event_target:new_shogunate }
					}
					event_target:new_shogunate = {
						vassalize = PREV
					}
				}
				every_country = {
					limit = {
						OR = {
							has_reform = jamindar_reform
							has_reform = great_jamindar_reform
						}
						war_with = event_target:new_shogunate
					}
					add_government_reform = indep_jamindar_reform
				}
			}
			if = {
				limit = {
					NOT = { FROM = { exists = yes } }
					NOT = {
						owner = { has_reform = raja_reform }
					}
				}
				every_country = {
					limit = { 
						OR = {
							has_reform = jamindar_reform
							has_reform = great_jamindar_reform
						}
					}
					overlord = {
						free_vassal = PREV
					}
				}
			}
		}
		if = {
			limit = {
				NOT = {
					owner = { has_reform = raja_reform }
				}
			}
			owner = {
				if = {
					limit = { NOT = { has_country_flag = destroyed_shogunate } }
					add_prestige = 20
					add_adm_power = 50
					add_dip_power = 50
					add_mil_power = 50
					set_country_flag = destroyed_shogunate
					4411 = {
						remove_province_modifier = rahen_corrupt_ministers
						remove_province_modifier = rahen_powerful_nobility
						remove_province_modifier = rahen_arrogant_foreign_office
						remove_province_modifier = rahen_disloyal_officers
					}
				}
			}
		}
		hidden_effect = {
			if = {
				limit = {
					any_country = {
						is_subject_of_type = daimyo_vassal
						NOT = { overlord = { has_reform = raja_reform } }
					}
				}
				every_country = {
					limit = {
						is_subject_of_type = daimyo_vassal
						NOT = { overlord = { has_reform = raja_reform } }
					}
					overlord = {
						free_vassal = PREV
					}
				}
			}
		}
		hidden_effect = { #stip all reformation modifiers from the former Raja
			FROM = {
				rahen_remove_harimraj_reforms_effect = yes
				remove_country_modifier = raj_opened_senapti_ranks
				remove_country_modifier = raj_closed_senapti_ranks
			}
		}
	}
}

#A Senapti Falls
country_event = { #This event lowers a Senapti to Prabhi rank
	id = rahenraj.2
	title = rahenraj.2.t
	desc = rahenraj.2.d
	picture = CONQUEST_eventPicture
	
	trigger = {
		OR = {
			AND = {
				is_subject_of_type = great_daimyo_vassal
				OR = {
					NOT = { num_of_cities = 2 }
					AND = {
						overlord = {
							has_country_modifier = raj_closed_senapti_ranks
							culture_group = harimari
						}
						NOT = { ruler_is_harimari = yes }
					}
					AND = {
						overlord = {
							has_country_modifier = raj_closed_senapti_ranks
							culture_group_is_human = yes
						}
						NOT = { ruler_is_human = yes }
					}
				}
			}
			AND = {
				is_subject_of_type = great_daimyo_vassal
				OR = {
					overlord = {
						great_daimyo_vassal = 15
					}
					overlord = {
						NOT = { num_of_subjects = 100 }
						great_daimyo_vassal = 13
					}
					overlord = {
						NOT = { num_of_subjects = 70 }
						great_daimyo_vassal = 11
					}
					overlord = {
						NOT = { num_of_subjects = 50 }
						great_daimyo_vassal = 9
					}
					overlord = {
						NOT = { num_of_subjects = 35 }
						great_daimyo_vassal = 7
					}
					overlord = {
						NOT = { num_of_subjects = 25 }
						great_daimyo_vassal = 5
					}
					overlord = {
						NOT = { num_of_subjects = 15 }
						great_daimyo_vassal = 3
					}
				}
				NOT = {
					overlord = {
						any_subject_country = {
							is_subject_of_type = great_daimyo_vassal
							NOT = { has_country_modifier = prabhi_recently_promoted }
							NOT = { tag = ROOT }
							variable_arithmetic_trigger = {
								export_to_variable = {
									which = our_total_development
									value = trigger_value:total_development
								}
								export_to_variable = {
									which = root_total_development
									value = trigger_value:total_development
									who = ROOT
								}
								
								check_variable = { #Check if A >= B
									which = root_total_development #A
									which = our_total_development #B
								}
							}
						}
					}
				}
			}
		}
	}
	
	mean_time_to_happen = {
		months = 1
	}
	
	option = { #Oh no, we've fallen from grace!!!
		name = rahenraj.2.a
		ai_chance = { factor = 1 }
		
		overlord = {
			create_subject = {
				subject_type = daimyo_vassal
				subject = ROOT
			}
		}
		if = {
			limit = {
				has_reform = great_jamindar_reform
			}
			add_government_reform = jamindar_reform
		}
	}
}

#A Prabhi Rises
country_event = { #This is a hidden event that just does the original effect
	id = rahenraj.3
	title = rahenraj.3.t
	desc = rahenraj.3.d
	picture = CONQUEST_eventPicture
	hidden = yes
	
	trigger = {
		is_subject_of_type = daimyo_vassal
		if = {
			limit = { overlord = { has_country_modifier = raj_closed_senapti_ranks } }
			OR = {
				AND = {
					overlord = {
						culture_group = harimari
					}
					ruler_is_harimari = yes
				}
				AND = {
					overlord = {
						culture_group_is_human = yes
					}
					ruler_is_human = yes
				}
			}
		}
		NOT = { has_country_modifier = jamindar_promotion_rejected }
		NOT = { has_country_modifier = senapti_recently_demoted }
		num_of_cities = 2
		NOT = { has_country_flag = potential_great_jamindar }
		OR = {
			overlord = {
				num_of_subjects = 100
				NOT = { great_daimyo_vassal = 14 }
			}
			overlord = {
				num_of_subjects = 70
				NOT = { great_daimyo_vassal = 12 }
			}
			overlord = {
				num_of_subjects = 50
				NOT = { great_daimyo_vassal = 10 }
			}
			overlord = {
				num_of_subjects = 35
				NOT = { great_daimyo_vassal = 8 }
			}
			overlord = {
				num_of_subjects = 25
				NOT = { great_daimyo_vassal = 4 }
			}
			overlord = {
				num_of_subjects = 15
				NOT = { great_daimyo_vassal = 2 }
			}
		}
		NOT = {
			overlord = {
				any_subject_country = {
					is_subject_of_type = daimyo_vassal
					NOT = { has_country_modifier = jamindar_promotion_rejected }
					NOT = { has_country_modifier = senapti_recently_demoted }
					num_of_cities = 2
					if = {
						limit = { overlord = { has_country_modifier = raj_closed_senapti_ranks culture_group = harimari } }
						ruler_is_harimari = yes
					}
					if = {
						limit = { overlord = { has_country_modifier = raj_closed_senapti_ranks culture_group_is_human = yes } }
						ruler_is_human = yes
					}
					NOT = { tag = ROOT }
					variable_arithmetic_trigger = {
						export_to_variable = {
							which = our_total_development
							value = trigger_value:total_development
						}
						export_to_variable = {
							which = root_total_development
							value = trigger_value:total_development
							who = ROOT
						}
						
						check_variable = { #Check if A >= B
							which = our_total_development #A
							which = root_total_development #B
						}
					}
				}
			}
		}
	}
	
	mean_time_to_happen = {
		months = 1
	}
	
	option = { #Send event to Raj
		ai_chance = { factor = 1 }
		save_global_event_target_as = potential_great_jamindar_target
		overlord = {
			country_event = {
				id = rahenraj.4
			}
		}
	}
}
country_event = { #Tell the Raj that there is a new potential Senpati
	id = rahenraj.4
	title = rahenraj.4.t
	desc = rahenraj.4.d
	picture = CONQUEST_eventPicture
	
	major = yes
	is_triggered_only = yes
	
	option = { #Raise Prabhi to Senapti
		name = rahenraj.4.a
		ai_chance = { factor = 1 } #! Balance AI chance
		
		event_target:potential_great_jamindar_target = {
			overlord = {
				create_subject = {
					subject_type = great_daimyo_vassal
					subject = event_target:potential_great_jamindar_target
				}
			}
			add_government_reform = great_jamindar_reform
		}
	}
	
	option = { #We don't need any more Senapti
		name = rahenraj.4.b
		ai_chance = { factor = 1 } #! Balance AI chance
		
		event_target:potential_great_jamindar_target = {
			add_country_modifier = {
				name = jamindar_promotion_rejected
				duration = 3650 #10 years
			}
		}
	}
}

#Event to ensure that Senapti and Prabhi keep Harimari rulers
country_event = { #If a Senapti ruler isn't a harimari
	id = rahenraj.5
	title = rahenraj.5.t
	picture = COURT_eventPicture
	
	desc = {
		trigger = {
			overlord = {
				primary_culture = harimari
			}
		}
		desc = rahenraj.5.da
	}
	desc = {
		trigger = {
			overlord = {
				culture_group_is_human = yes
			}
		}
		desc = rahenraj.5.db
	}
	
	trigger = {
		has_reform = great_jamindar_reform
		OR = {
			AND = {
				overlord = {
					has_country_modifier = raj_closed_senapti_ranks
					culture_group = harimari
				}
				NOT = { ruler_is_harimari = yes }
			}
			AND = {
				overlord = {
					has_country_modifier = raj_closed_senapti_ranks
					culture_group_is_human = yes
				}
				NOT = { ruler_is_human = yes }
			}
		}
	}
	is_triggered_only = yes
	
	option = { #Keep Current Ruler
		ai_chance = { factor = 0 }
		name = rahenraj.5.a
		
		add_prestige = 10
		increase_legitimacy_medium_effect = yes
	}
	option = { #Change Ruler
		ai_chance = { factor = 5 }
		name = rahenraj.5.b
		
		hidden_effect = {
			export_to_variable = {
				which = rajCulture
				value = primary_culture
				who = overlord
			}
		}
		
		define_ruler = {
			culture = variable:rajCulture
			claim = 50
			male = yes
		}
	}
}
country_event = { #If a Raj subject has an heir that isn't a harimari
	id = rahenraj.6
	title = rahenraj.6.t
	picture = COURT_eventPicture
	
	desc = {
		trigger = {
			overlord = {
				primary_culture = harimari
			}
		}
		desc = rahenraj.6.da
	}
	desc = {
		trigger = {
			overlord = {
				culture_group_is_human = yes
			}
		}
		desc = rahenraj.6.db
	}
	
	trigger = {
		OR = {
			has_reform = jamindar_reform
			has_reform = great_jamindar_reform
		}
		overlord = { has_country_modifier = raj_closed_senapti_ranks }
		has_heir = yes
		NOT = { has_heir_flag = raj_heir_refused }
		OR = {
			AND = {
				overlord = {
					culture_group = harimari
				}
				ruler_is_harimari = yes
				NOT = { heir_is_harimari = yes }
			}
			AND = {
				overlord = {
					culture_group_is_human = yes
				}
				ruler_is_human = yes
				NOT = { heir_is_human = yes }
			}
		}
	}
	is_triggered_only = yes
	
	option = { #Keep Current Heir
		ai_chance = { factor = 0 }
		name = rahenraj.5.a
		
		add_prestige = 10
		add_heir_claim = 20
		
		set_heir_flag = raj_heir_refused
	}
	option = { #Change Heir
		ai_chance = { factor = 5 }
		name = rahenraj.5.b
		
		hidden_effect = {
			export_to_variable = {
				which = rajCulture
				value = primary_culture
				who = overlord
			}
			
		}
		
		define_heir = {
			culture = variable:rajCulture
			claim = 50
			male = yes
			no_consort_with_heir = yes
			age = 25
		}
	}
}



###########################
### Reforming the court ###
###########################

#Reform the military
country_event = {
	id = rahenraj.7
	title = rahenraj.7.t
	desc = rahenraj.7.d
	picture = COURT_eventPicture
	
	trigger = { capital = 4411 }
	
	major = yes
	is_triggered_only = yes
	
	option = { #Sack all current commanders
		ai_chance = { factor = 1 }
		name = rahenraj.7.a
		
		add_army_tradition = -50
		add_army_professionalism = -0.5
		if = {
			limit = { num_of_generals = 1 }
			kill_leader = { type = general }
		}
		else_if = {
			limit = { num_of_generals = 2 }
			kill_leader = { type = general }
			kill_leader = { type = general }
		}
		else_if = {
			limit = { num_of_generals = 3 }
			kill_leader = { type = general }
			kill_leader = { type = general }
			kill_leader = { type = general }
		}
		add_country_modifier = {
			name = rahen_insecure_officer_jobs
			duration = 1825 #5 years
		}
		add_country_modifier = {
			name = rahen_disorganised_military
			duration = 9125 #25 years
		}
		4411 = { remove_province_modifier = rahen_disloyal_officers }
		hidden_effect = {
			country_event = {
				id = rahenraj.8
				days = 30
				random = 60
			}
			country_event = {
				id = rahenraj.9
				days = 30
				random = 60
			}
		}
		random = { 
			chance = 75 

			4411 = {
				spawn_rebels = {
					type = pretender_rebels
					size = 1
				}
			}
			add_manpower = -10	
		}
	}
	option = { #Investigate each individual commander's loyalty
		ai_chance = { factor = 2 }
		name = rahenraj.7.b
		
		hidden_effect = {
			country_event = {
				id = rahenraj.13
				days = 120
				random = 240
			}
		}
	}
	option = { #Nevermind, this will be too disruptive
		ai_chance = { factor = 1 }
		name = rahenraj.7.c
		
		add_stability_or_adm_power = yes
		remove_country_modifier = rahen_court_reformations
	}
}
country_event = { #How do we want to find new officers?
	id = rahenraj.8
	title = rahenraj.8.t
	desc = rahenraj.8.d
	picture = COURT_eventPicture
	
	trigger = { capital = 4411 }
	
	is_triggered_only = yes
	
	option = { #Look for new commanders under the great families
		ai_chance = { factor = 1 }
		name = rahenraj.8.a
		
		add_estate_influence_modifier = {
			estate = estate_nobles
			desc = EST_VAL_NOBLES_RAHEN_RECRUITING_FROM_NOBILITY
			influence = 10
			duration = 7300 #20 years
		}
		add_estate_loyalty_modifier = {
			estate = estate_nobles
			desc = EST_VAL_NOBLES_RAHEN_RECRUITING_FROM_NOBILITY_LOY
			loyalty = 10
			duration = 7300 #20 years
		}
		hidden_effect = {
			country_event = {
				id = rahenraj.10
				days = 120
				random = 1200
			}
		}
	}
	option = { #Recruit from the best warriors, host a public contest in exactly a year
		ai_chance = { factor = 1 }
		name = rahenraj.8.b
		
		hidden_effect = {
			country_event = {
				id = rahenraj.11
				days = 365
				random = 3
			}
		}
	}
}
country_event = { #How do we want to ensure the loyalty of these new officers?
	id = rahenraj.9
	title = rahenraj.9.t
	desc = rahenraj.9.d
	picture = COURT_eventPicture
	
	trigger = { capital = 4411 }
	
	is_triggered_only = yes
	
	option = { #Soldiers are loyal to coin
		ai_chance = { factor = 1 }
		name = rahenraj.9.a
		
		add_country_modifier = {
			name = rahen_soldiers_are_loyal_to_gold
			duration = 9125 #25 years
		}
	}
	option = { #Hand pick them to ensure they are personally loyal to the Raja
		ai_chance = { factor = 1 }
		name = rahenraj.9.b
		
		add_country_modifier = {
			name = rahen_hand_picked_commanders
			duration = 9125 #25 years
		}
	}
}
country_event = { #Noble families propose candidates
	id = rahenraj.10
	title = rahenraj.10.t
	desc = rahenraj.10.d
	picture = COURT_eventPicture
	
	trigger = { capital = 4411 }
	
	is_triggered_only = yes
	
	immediate = {
		hidden_effect = {
			country_event = {
				id = rahenraj.17
				days = 730 #2 years
				random = 365
			}
		}
	}
	
	option = { #The great warrior
		ai_chance = { factor = 1 }
		name = rahenraj.10.a
		
		add_corruption = 2
		create_general = {
			tradition = 60
			add_shock = 3
		}
		add_estate_influence_modifier = {
			estate = estate_nobles
			desc = EST_VAL_NOBLES_RAHEN_NOBLE_OFFICERS
			influence = 10
			duration = 9125 #25 years
		}
		if = {
			limit = { has_country_modifier = rahen_soldiers_are_loyal_to_gold }
			add_years_of_income = -1
		}
		else_if = {
			limit = { has_country_modifier = rahen_hand_picked_commanders }
			add_mil_power = -100
		}
	}
	option = { #The leader of troops
		ai_chance = { factor = 1 }
		name = rahenraj.10.b
		
		add_corruption = 2
		create_general = {
			tradition = 40
		}
		add_country_modifier = {
			name = rahen_charismatic_marshal
			duration = 7300 #20 years
		}
		add_estate_influence_modifier = {
			estate = estate_nobles
			desc = EST_VAL_NOBLES_RAHEN_NOBLE_OFFICERS
			influence = 10
			duration = 9125 #25 years
		}
		if = {
			limit = { has_country_modifier = rahen_soldiers_are_loyal_to_gold }
			add_years_of_income = -1
		}
		else_if = {
			limit = { has_country_modifier = rahen_hand_picked_commanders }
			add_mil_power = -100
		}
	}
	option = { #The student of war
		ai_chance = { factor = 1 }
		name = rahenraj.10.c
		
		add_corruption = 2
		define_advisor = {
			type = commandant
			skill = 2
			discount = yes
			culture = ROOT
			religion = ROOT
		}
		country_event = {
			id = rahenraj.12
			days = 365
			random = 1825 #5 years
		}
		add_estate_influence_modifier = {
			estate = estate_nobles
			desc = EST_VAL_NOBLES_RAHEN_NOBLE_OFFICERS
			influence = 10
			duration = 9125 #25 years
		}
		if = {
			limit = { has_country_modifier = rahen_soldiers_are_loyal_to_gold }
			add_years_of_income = -1
		}
		else_if = {
			limit = { has_country_modifier = rahen_hand_picked_commanders }
			add_mil_power = -100
		}
	}
	option = { #None are fitting, we will rely on the common soldier
		ai_chance = { factor = 1 }
		name = rahenraj.10.dd
		
		create_general = {
			tradition = 30
			culture = ROOT
		}
		add_estate_influence_modifier = {
			estate = estate_nobles
			desc = EST_VAL_NOBLES_RAHEN_COMMON_OFFICERS
			influence = -10
			duration = 9125 #25 years
		}
		if = {
			limit = { has_country_modifier = rahen_soldiers_are_loyal_to_gold }
			add_years_of_income = -1
		}
		else_if = {
			limit = { has_country_modifier = rahen_hand_picked_commanders }
			add_mil_power = -100
		}
	}
}
country_event = { #A winner of the great contest
	id = rahenraj.11
	title = rahenraj.11.t
	desc = rahenraj.11.d
	picture = COURT_eventPicture
	
	trigger = { capital = 4411 }
	
	is_triggered_only = yes
	
	immediate = {
		hidden_effect = {
			country_event = {
				id = rahenraj.17
				days = 730 #2 years
				random = 365
			}
		}
	}
	
	option = { #We must have this man lead our armies!
		ai_chance = { factor = 1 }
		name = rahenraj.11.a
		
		reduce_stability_or_adm_power = yes
		reduce_legitimacy_large_effect = yes
		create_general = {
			tradition = 60
			add_shock = 3
			add_manuever = 2
			add_siege = 1
		}
		if = {
			limit = { has_country_modifier = rahen_soldiers_are_loyal_to_gold }
			add_years_of_income = -1
		}
		else_if = {
			limit = { has_country_modifier = rahen_hand_picked_commanders }
			add_mil_power = -100
		}
	}
	option = { #This man will lead the imperial bodyguard!
		ai_chance = { factor = 1 }
		name = rahenraj.11.b
		
		define_advisor = {
			type = grand_captain
			skill = 2
			discount = yes
		}
		country_event = {
			id = rahenraj.12
			days = 1825 #5 years
			random = 1825
		}
		reduce_stability_or_adm_power = yes
		reduce_legitimacy_large_effect = yes
		if = {
			limit = { has_country_modifier = rahen_soldiers_are_loyal_to_gold }
			add_years_of_income = -1
		}
		else_if = {
			limit = { has_country_modifier = rahen_hand_picked_commanders }
			add_mil_power = -100
		}
	}
	option = { #His skill might be great, but his lack of noble blood is discouraging
		ai_chance = { factor = 1 }
		name = rahenraj.11.c
		
		create_general = {
			tradition = 30
			culture = ROOT
		}
		add_estate_influence_modifier = {
			estate = estate_nobles
			desc = EST_VAL_NOBLES_RAHEN_NOBLE_OFFICERS
			influence = 10
			duration = 9125 #25 years
		}
		if = {
			limit = { has_country_modifier = rahen_soldiers_are_loyal_to_gold }
			add_years_of_income = -1
		}
		else_if = {
			limit = { has_country_modifier = rahen_hand_picked_commanders }
			add_mil_power = -100
		}
	}
}
country_event = { #New general organises the military
	id = rahenraj.12
	title = rahenraj.12.t
	desc = rahenraj.12.d
	picture = COURT_eventPicture
	
	trigger = { capital = 4411 }
	
	is_triggered_only = yes
	
	option = { #Finally, structure!
		ai_chance = { factor = 1 }
		name = rahenraj.12.a
		
		remove_country_modifier = rahen_disorganised_military
	}
}
country_event = { #How do we want to test our commanders' loyalty?
	id = rahenraj.13
	title = rahenraj.13.t
	desc = rahenraj.13.d
	picture = COURT_eventPicture
	
	trigger = { capital = 4411 }
	
	is_triggered_only = yes
	
	option = { #Gather intelligence on each commander
		ai_chance = { factor = 1 }
		name = rahenraj.13.a
		
		add_country_modifier = {
			name = rahen_internal_military_monitoring
			duration = 18250 #50 years
		}
		hidden_effect = {
			country_event = {
				id = rahenraj.14
				days = 365
				random = 365
			}
		}
	}
	option = { #Devise a test
		ai_chance = { factor = 1 }
		name = rahenraj.13.b
		
		add_mil_power = -100
		
		hidden_effect = {
			country_event = {
				id = rahenraj.15
				days = 365
				random = 365
			}
		}
	}
}
country_event = { #The most loyal have been filtered out and the disloyal have been put on a list
	id = rahenraj.14
	title = rahenraj.14.t
	desc = rahenraj.14.d
	picture = COURT_eventPicture
	
	trigger = { capital = 4411 }
	
	is_triggered_only = yes
	
	immediate = {
		hidden_effect = {
			country_event = {
				id = rahenraj.17
				days = 730 #2 years
				random = 365
			}
		}
	}
	
	option = { #Reward the most loyal ones to promote good behaviour
		ai_chance = { factor = 1 }
		name = rahenraj.14.a
		
		add_country_modifier = {
			name = rahen_rewarding_loyal_officers
			duration = 9125 #25 years
		}
	}
	option = { #Sack the most disloyal and blackmail the other dissenters to have them fall in line
		ai_chance = { factor = 1 }
		name = rahenraj.14.b
		
		add_country_modifier = {
			name = rahen_blackmailing_disloyal_officers
			duration = 9125 #25 years
		}
	}
}
country_event = { #The test preparations have been finished
	id = rahenraj.15
	title = rahenraj.15.t
	desc = rahenraj.15.d
	picture = COURT_eventPicture
	
	trigger = { capital = 4411 }
	
	is_triggered_only = yes
	
	immediate = {
		hidden_effect = {
			country_event = {
				id = rahenraj.16
				days = 1825 #5 years
				random = 365
			}
		}
	}
	
	option = { #Commence the tests
		ai_chance = { factor = 1 }
		name = rahenraj.15.a
		
	}
}
country_event = { #The test has been concluded
	id = rahenraj.16
	title = rahenraj.16.t
	desc = rahenraj.16.d
	picture = COURT_eventPicture
	
	trigger = { capital = 4411 }
	
	is_triggered_only = yes
	
	immediate = {
		hidden_effect = {
			country_event = {
				id = rahenraj.17
				days = 730 #2 years
				random = 365
			}
		}
	}
	
	option = { #Make rank adjustments as appropriate
		ai_chance = { factor = 1 }
		name = rahenraj.16.a
		
	}
}
country_event = { #Officers have fallen in line
	id = rahenraj.17
	title = rahenraj.17.t
	desc = rahenraj.17.d
	picture = COURT_eventPicture
	
	trigger = { capital = 4411 }
	
	is_triggered_only = yes
	
	option = { #After a rigorous program of reforms we have now managed to ensure the loyalty of our officer corps
		ai_chance = { factor = 1 }
		name = rahenraj.17.a
		
		4411 = { remove_province_modifier = rahen_disloyal_officers }
		remove_country_modifier = rahen_court_reformations
		hidden_effect = { rahen_add_completed_reforms_flag = yes }
	}
}

#Reform the ministry
country_event = {
	id = rahenraj.20
	title = rahenraj.20.t
	desc = rahenraj.20.d
	picture = COURT_eventPicture
	
	trigger = { capital = 4411 }
	
	major = yes
	is_triggered_only = yes
	
	option = { #Found the Board of Inquiry
		ai_chance = { factor = 1 }
		name = rahenraj.20.a
		
		add_country_modifier = {
			name = rahen_board_of_inquiry
			duration = -1
		}
		hidden_effect = {
			country_event = {
				id = rahenraj.21
				days = 15
				random = 60
			}
		}
	}
	option = { #Dismiss the ministries
		ai_chance = { factor = 1 }
		name = rahenraj.20.b
		
		4411 = { remove_province_modifier = rahen_corrupt_ministers }
		remove_country_modifier = rahen_court_reformations
		add_country_modifier = {
			name = rahen_despotic_rule
			duration = 18250 #50 years
		}
		
		add_country_modifier = {
			name = rahen_dismissed_ministries
			duration = 10950 #30 years
		}
		add_country_modifier = {
			name = rahen_ministry_of_agriculture_dismissed
			duration = 10950 #30 years
		}
		add_country_modifier = {
			name = rahen_ministry_of_philosophy_dismissed
			duration = 10950 #30 years
		}
		add_country_modifier = {
			name = rahen_ministry_of_commerce_dismissed
			duration = 10950 #30 years
		}
		add_country_modifier = {
			name = rahen_ministry_of_infrastructure_dismissed
			duration = 10950 #30 years
		}
		add_country_modifier = {
			name = rahen_ministry_of_justice_dismissed
			duration = 10950 #30 years
		}
		
		hidden_effect = {
			every_subject_country = {
				add_country_modifier = {
					name = rahen_ministry_of_agriculture_dismissed
					duration = 3650 #10 years
				}
				add_country_modifier = {
					name = rahen_ministry_of_philosophy_dismissed
					duration = 3650 #10 years
				}
				add_country_modifier = {
					name = rahen_ministry_of_commerce_dismissed
					duration = 3650 #10 years
				}
				add_country_modifier = {
					name = rahen_ministry_of_infrastructure_dismissed
					duration = 3650 #10 years
				}
				add_country_modifier = {
					name = rahen_ministry_of_justice_dismissed
					duration = 3650 #10 years
				}
			}
			
			country_event = {
				id = rahenraj.27
				days = 1825
				random = 3650
			}
			country_event = {
				id = rahenraj.28
				days = 1825
				random = 3650
			}
			country_event = {
				id = rahenraj.29
				days = 1825
				random = 3650
			}
			country_event = {
				id = rahenraj.30
				days = 1825
				random = 3650
			}
			country_event = {
				id = rahenraj.31
				days = 1825
				random = 3650
			}
			hidden_effect = { rahen_add_completed_reforms_flag = yes }
		}
	}
	option = { #Nevermind, this will be too disruptive
		ai_chance = { factor = 1 }
		name = rahenraj.7.c
		
		add_stability_or_adm_power = yes
		remove_country_modifier = rahen_court_reformations
	}
}
country_event = { #What should the approach of the board be?
	id = rahenraj.21
	title = rahenraj.21.t
	desc = rahenraj.21.d
	picture = COURT_eventPicture
	
	trigger = { capital = 4411 }
	
	is_triggered_only = yes
	
	option = { #Supervision of the ministries
		ai_chance = { factor = 1 }
		name = rahenraj.21.a
		
		add_country_modifier = {
			name = rahen_supervised_ministries
			duration = 9125 #25 years
		}
		hidden_effect = {
			country_event = {
				id = rahenraj.22
				days = 730
				random = 1095
			}
		}
	}
	option = { #The purging of misbehaving ministers
		ai_chance = { factor = 1 }
		name = rahenraj.21.b
		
		
		add_country_modifier = {
			name = rahen_purging_policy
			duration = 5475 #15 years
		}
		hidden_effect = {
			country_event = {
				id = rahenraj.22
				days = 365
				random = 365
			}
		}
	}
}
country_event = { #The first steps
	id = rahenraj.22
	title = rahenraj.22.t
	desc = rahenraj.22.d
	picture = COURT_eventPicture
	
	trigger = { capital = 4411 }
	
	is_triggered_only = yes
	
	option = { #It'll be a while
		ai_chance = { factor = 1 }
		name = rahenraj.22.a
		
		add_country_modifier = {
			name = rahen_restoring_ministry_1
			duration = -1
		}
		
		if = {
			limit = { has_country_modifier = rahen_supervised_ministries }
			add_adm_power = -50
			add_prestige = -10
		}
		else_if = {
			limit = { has_country_modifier = rahen_purging_policy }
			add_adm_power = -100
			random = {
				chance = 33
				4411 = {
					spawn_rebels = {
						type = noble_rebels
						size = 1
					}
				}
			}
			random = {
				chance = 33
				reduce_stability_or_adm_power = yes
			}
		}
		
		hidden_effect = {
			if = {
				limit = { has_country_modifier = rahen_supervised_ministries }
				country_event = {
					id = rahenraj.23
					days = 730
					random = 1095
				}
			}
			else_if = {
				limit = { has_country_modifier = rahen_purging_policy }
				country_event = {
					id = rahenraj.23
					days = 365
					random = 365
				}
			}
		}
	}
}
country_event = { #We're seeing improvement
	id = rahenraj.23
	title = rahenraj.23.t
	desc = rahenraj.23.d
	picture = COURT_eventPicture
	
	trigger = { capital = 4411 }
	
	is_triggered_only = yes
	
	option = { #Good, good
		ai_chance = { factor = 1 }
		name = rahenraj.23.a
		
		add_country_modifier = {
			name = rahen_restoring_ministry_2
			duration = -1
		}
		remove_country_modifier = rahen_restoring_ministry_1
		
		if = {
			limit = { has_country_modifier = rahen_supervised_ministries }
			add_adm_power = -50
			add_prestige = -10
		}
		else_if = {
			limit = { has_country_modifier = rahen_purging_policy }
			add_adm_power = -100
			random = {
				chance = 33
				4411 = {
					spawn_rebels = {
						type = noble_rebels
						size = 1
					}
				}
			}
			random = {
				chance = 33
				reduce_stability_or_adm_power = yes
			}
		}
		
		hidden_effect = {
			if = {
				limit = { has_country_modifier = rahen_supervised_ministries }
				country_event = {
					id = rahenraj.24
					days = 730
					random = 1095
				}
			}
			else_if = {
				limit = { has_country_modifier = rahen_purging_policy }
				country_event = {
					id = rahenraj.24
					days = 365
					random = 365
				}
			}
		}
	}
}
country_event = { #A high level suspect
	id = rahenraj.24
	title = rahenraj.24.t
	desc = rahenraj.24.d
	picture = COURT_eventPicture
	
	trigger = { capital = 4411 }
	
	is_triggered_only = yes
	
	option = { #Glad that's rooted out
		ai_chance = { factor = 1 }
		name = rahenraj.24.a
		
		add_country_modifier = {
			name = rahen_restoring_ministry_3
			duration = -1
		}
		remove_country_modifier = rahen_restoring_ministry_2
		
		if = {
			limit = { has_country_modifier = rahen_supervised_ministries }
			add_adm_power = -50
			add_prestige = -10
		}
		else_if = {
			limit = { has_country_modifier = rahen_purging_policy }
			add_adm_power = -100
			random = {
				chance = 33
				4411 = {
					spawn_rebels = {
						type = noble_rebels
						size = 1
					}
				}
			}
			random = {
				chance = 33
				reduce_stability_or_adm_power = yes
			}
		}
		
		hidden_effect = {
			if = {
				limit = { has_country_modifier = rahen_supervised_ministries }
				country_event = {
					id = rahenraj.25
					days = 730
					random = 1095
				}
			}
			else_if = {
				limit = { has_country_modifier = rahen_purging_policy }
				country_event = {
					id = rahenraj.25
					days = 365
					random = 365
				}
			}
		}
	}
}
country_event = { #Functioning ministries
	id = rahenraj.25
	title = rahenraj.25.t
	desc = rahenraj.25.d
	picture = COURT_eventPicture
	
	trigger = { capital = 4411 }
	
	is_triggered_only = yes
	
	option = { #We're almost there
		ai_chance = { factor = 1 }
		name = rahenraj.25.a
		
		add_country_modifier = {
			name = rahen_restoring_ministry_4
			duration = -1
		}
		remove_country_modifier = rahen_restoring_ministry_3
		
		hidden_effect = {
			if = {
				limit = { has_country_modifier = rahen_supervised_ministries }
				country_event = {
					id = rahenraj.26
					days = 730
					random = 1095
				}
			}
			else_if = {
				limit = { has_country_modifier = rahen_purging_policy }
				country_event = {
					id = rahenraj.26
					days = 365
					random = 365
				}
			}
		}
	}
}
country_event = { #The ministries have been cleansed
	id = rahenraj.26
	title = rahenraj.26.t
	desc = rahenraj.26.d
	picture = COURT_eventPicture
	
	trigger = { capital = 4411 }
	
	is_triggered_only = yes
	
	option = { #Splendid
		ai_chance = { factor = 1 }
		name = rahenraj.26.a
		
		remove_country_modifier = rahen_restoring_ministry_4
		4411 = { remove_province_modifier = rahen_corrupt_ministers }
		remove_country_modifier = rahen_court_reformations
		remove_country_modifier = rahen_board_of_inquiry
		hidden_effect = { rahen_add_completed_reforms_flag = yes }
	}
}
country_event = { #Restoreing the ministry of agriculture
	id = rahenraj.27
	title = rahenraj.27.t
	desc = rahenraj.27.d
	picture = COURT_eventPicture
	
	trigger = { capital = 4411 }
	
	is_triggered_only = yes
	
	option = { #Let's build them up
		ai_chance = { factor = 3 }
		name = rahenraj.27.a
		
		remove_country_modifier = rahen_ministry_of_agriculture_dismissed
		hidden_effect = {
			every_subject_country = {
				remove_country_modifier = rahen_ministry_of_agriculture_dismissed
			}
		}
		
		define_advisor = {
			type = natural_scientist
			skill = 2
			discount = yes
		}
		
		if = {
			limit = { has_country_modifier = rahen_deminished_despotic_rule_4 }
			remove_country_modifier = rahen_deminished_despotic_rule_4
		}
		else_if = {
			limit = { has_country_modifier = rahen_deminished_despotic_rule_3 }
			remove_country_modifier = rahen_deminished_despotic_rule_3
			add_country_modifier = {
				name = rahen_deminished_despotic_rule_4
				duration = 18250
			}
		}
		else_if = {
			limit = { has_country_modifier = rahen_deminished_despotic_rule_2 }
			remove_country_modifier = rahen_deminished_despotic_rule_2
			add_country_modifier = {
				name = rahen_deminished_despotic_rule_3
				duration = 18250
			}
		}
		else_if = {
			limit = { has_country_modifier = rahen_deminished_despotic_rule_1 }
			remove_country_modifier = rahen_deminished_despotic_rule_1
			add_country_modifier = {
				name = rahen_deminished_despotic_rule_2
				duration = 18250
			}
		}
		else_if = {
			limit = { has_country_modifier = rahen_despotic_rule }
			remove_country_modifier = rahen_despotic_rule
			add_country_modifier = {
				name = rahen_deminished_despotic_rule_1
				duration = 18250
			}
		}
		
		if = {
			limit = {
				NOT = {
					has_country_modifier = rahen_ministry_of_agriculture_dismissed
					has_country_modifier = rahen_ministry_of_infrastructure_dismissed
					has_country_modifier = rahen_ministry_of_philosophy_dismissed
					has_country_modifier = rahen_ministry_of_commerce_dismissed
					has_country_modifier = rahen_ministry_of_justice_dismissed
				}
			}
			remove_country_modifier = rahen_dismissed_ministries
		}
	}
	
	option = { #We don't need them
		ai_chance = { factor = 1 }
		name = rahenraj.27.b
		
		hidden_effect = {
			if = {
				limit = { has_country_flag = rahen_ministries_disbanded_2 }
				
				country_event = {
					id = rahenraj.32
					days = 365
					random = 365
				}
			}
			else_if = {
				limit = { has_country_flag = rahen_ministries_disbanded_1 }
				set_country_flag = rahen_ministries_disbanded_2
			}
			else = {
				set_country_flag = rahen_ministries_disbanded_1
			}
		}
	}
}
country_event = { #Restoreing the ministry of philosophy
	id = rahenraj.28
	title = rahenraj.28.t
	desc = rahenraj.28.d
	picture = COURT_eventPicture
	
	trigger = { capital = 4411 }
	
	is_triggered_only = yes
	
	option = { #Let's build them up
		ai_chance = { factor = 3 }
		name = rahenraj.28.a
		
		remove_country_modifier = rahen_ministry_of_philosophy_dismissed
		hidden_effect = {
			every_subject_country = {
				remove_country_modifier = rahen_ministry_of_philosophy_dismissed
			}
		}
		
		define_advisor = {
			type = philosopher
			skill = 2
			discount = yes
		}
		
		if = {
			limit = { has_country_modifier = rahen_deminished_despotic_rule_4 }
			remove_country_modifier = rahen_deminished_despotic_rule_4
		}
		else_if = {
			limit = { has_country_modifier = rahen_deminished_despotic_rule_3 }
			remove_country_modifier = rahen_deminished_despotic_rule_3
			add_country_modifier = {
				name = rahen_deminished_despotic_rule_4
				duration = 18250
			}
		}
		else_if = {
			limit = { has_country_modifier = rahen_deminished_despotic_rule_2 }
			remove_country_modifier = rahen_deminished_despotic_rule_2
			add_country_modifier = {
				name = rahen_deminished_despotic_rule_3
				duration = 18250
			}
		}
		else_if = {
			limit = { has_country_modifier = rahen_deminished_despotic_rule_1 }
			remove_country_modifier = rahen_deminished_despotic_rule_1
			add_country_modifier = {
				name = rahen_deminished_despotic_rule_2
				duration = 18250
			}
		}
		else_if = {
			limit = { has_country_modifier = rahen_despotic_rule }
			remove_country_modifier = rahen_despotic_rule
			add_country_modifier = {
				name = rahen_deminished_despotic_rule_1
				duration = 18250
			}
		}
		
		if = {
			limit = {
				NOT = {
					has_country_modifier = rahen_ministry_of_agriculture_dismissed
					has_country_modifier = rahen_ministry_of_infrastructure_dismissed
					has_country_modifier = rahen_ministry_of_philosophy_dismissed
					has_country_modifier = rahen_ministry_of_commerce_dismissed
					has_country_modifier = rahen_ministry_of_justice_dismissed
				}
			}
			remove_country_modifier = rahen_dismissed_ministries
		}
	}
	
	option = { #We don't need them
		ai_chance = { factor = 1 }
		name = rahenraj.28.b
		
		hidden_effect = {
			if = {
				limit = { has_country_flag = rahen_ministries_disbanded_2 }
				
				country_event = {
					id = rahenraj.32
					days = 365
					random = 365
				}
			}
			else_if = {
				limit = { has_country_flag = rahen_ministries_disbanded_1 }
				set_country_flag = rahen_ministries_disbanded_2
			}
			else = {
				set_country_flag = rahen_ministries_disbanded_1
			}
		}
	}
}
country_event = { #Restoreing the ministry of commerce
	id = rahenraj.29
	title = rahenraj.29.t
	desc = rahenraj.29.d
	picture = COURT_eventPicture
	
	trigger = { capital = 4411 }
	
	is_triggered_only = yes
	
	option = { #Let's build them up
		ai_chance = { factor = 3 }
		name = rahenraj.29.a
		
		remove_country_modifier = rahen_ministry_of_commerce_dismissed
		hidden_effect = {
			every_subject_country = {
				remove_country_modifier = rahen_ministry_of_commerce_dismissed
			}
		}
		
		define_advisor = {
			type = trader
			skill = 2
			discount = yes
		}
		
		if = {
			limit = { has_country_modifier = rahen_deminished_despotic_rule_4 }
			remove_country_modifier = rahen_deminished_despotic_rule_4
		}
		else_if = {
			limit = { has_country_modifier = rahen_deminished_despotic_rule_3 }
			remove_country_modifier = rahen_deminished_despotic_rule_3
			add_country_modifier = {
				name = rahen_deminished_despotic_rule_4
				duration = 18250
			}
		}
		else_if = {
			limit = { has_country_modifier = rahen_deminished_despotic_rule_2 }
			remove_country_modifier = rahen_deminished_despotic_rule_2
			add_country_modifier = {
				name = rahen_deminished_despotic_rule_3
				duration = 18250
			}
		}
		else_if = {
			limit = { has_country_modifier = rahen_deminished_despotic_rule_1 }
			remove_country_modifier = rahen_deminished_despotic_rule_1
			add_country_modifier = {
				name = rahen_deminished_despotic_rule_2
				duration = 18250
			}
		}
		else_if = {
			limit = { has_country_modifier = rahen_despotic_rule }
			remove_country_modifier = rahen_despotic_rule
			add_country_modifier = {
				name = rahen_deminished_despotic_rule_1
				duration = 18250
			}
		}
		
		if = {
			limit = {
				NOT = {
					has_country_modifier = rahen_ministry_of_agriculture_dismissed
					has_country_modifier = rahen_ministry_of_infrastructure_dismissed
					has_country_modifier = rahen_ministry_of_philosophy_dismissed
					has_country_modifier = rahen_ministry_of_commerce_dismissed
					has_country_modifier = rahen_ministry_of_justice_dismissed
				}
			}
			remove_country_modifier = rahen_dismissed_ministries
		}
	}
	
	option = { #We don't need them
		ai_chance = { factor = 1 }
		name = rahenraj.29.b
		
		hidden_effect = {
			if = {
				limit = { has_country_flag = rahen_ministries_disbanded_2 }
				
				country_event = {
					id = rahenraj.32
					days = 365
					random = 365
				}
			}
			else_if = {
				limit = { has_country_flag = rahen_ministries_disbanded_1 }
				set_country_flag = rahen_ministries_disbanded_2
			}
			else = {
				set_country_flag = rahen_ministries_disbanded_1
			}
		}
	}
}
country_event = { #Restoreing the ministry of infrastructure
	id = rahenraj.30
	title = rahenraj.30.t
	desc = rahenraj.30.d
	picture = COURT_eventPicture
	
	trigger = { capital = 4411 }
	
	is_triggered_only = yes
	
	option = { #Let's build them up
		ai_chance = { factor = 3 }
		name = rahenraj.30.a
		
		remove_country_modifier = rahen_ministry_of_infrastructure_dismissed
		hidden_effect = {
			every_subject_country = {
				remove_country_modifier = rahen_ministry_of_infrastructure_dismissed
			}
		}
		
		define_advisor = {
			type = fortification_expert
			skill = 2
			discount = yes
		}
		
		if = {
			limit = { has_country_modifier = rahen_deminished_despotic_rule_4 }
			remove_country_modifier = rahen_deminished_despotic_rule_4
		}
		else_if = {
			limit = { has_country_modifier = rahen_deminished_despotic_rule_3 }
			remove_country_modifier = rahen_deminished_despotic_rule_3
			add_country_modifier = {
				name = rahen_deminished_despotic_rule_4
				duration = 18250
			}
		}
		else_if = {
			limit = { has_country_modifier = rahen_deminished_despotic_rule_2 }
			remove_country_modifier = rahen_deminished_despotic_rule_2
			add_country_modifier = {
				name = rahen_deminished_despotic_rule_3
				duration = 18250
			}
		}
		else_if = {
			limit = { has_country_modifier = rahen_deminished_despotic_rule_1 }
			remove_country_modifier = rahen_deminished_despotic_rule_1
			add_country_modifier = {
				name = rahen_deminished_despotic_rule_2
				duration = 18250
			}
		}
		else_if = {
			limit = { has_country_modifier = rahen_despotic_rule }
			remove_country_modifier = rahen_despotic_rule
			add_country_modifier = {
				name = rahen_deminished_despotic_rule_1
				duration = 18250
			}
		}
		
		if = {
			limit = {
				NOT = {
					has_country_modifier = rahen_ministry_of_agriculture_dismissed
					has_country_modifier = rahen_ministry_of_infrastructure_dismissed
					has_country_modifier = rahen_ministry_of_philosophy_dismissed
					has_country_modifier = rahen_ministry_of_commerce_dismissed
					has_country_modifier = rahen_ministry_of_justice_dismissed
				}
			}
			remove_country_modifier = rahen_dismissed_ministries
		}
	}
	
	option = { #We don't need them
		ai_chance = { factor = 1 }
		name = rahenraj.30.b
		
		hidden_effect = {
			if = {
				limit = { has_country_flag = rahen_ministries_disbanded_2 }
				
				country_event = {
					id = rahenraj.32
					days = 365
					random = 365
				}
			}
			else_if = {
				limit = { has_country_flag = rahen_ministries_disbanded_1 }
				set_country_flag = rahen_ministries_disbanded_2
			}
			else = {
				set_country_flag = rahen_ministries_disbanded_1
			}
		}
	}
}
country_event = { #Restoreing the ministry of justice
	id = rahenraj.31
	title = rahenraj.31.t
	desc = rahenraj.31.d
	picture = COURT_eventPicture
	
	trigger = { capital = 4411 }
	
	is_triggered_only = yes
	
	option = { #Let's build them up
		ai_chance = { factor = 3 }
		name = rahenraj.31.a
		
		remove_country_modifier = rahen_ministry_of_justice_dismissed
		hidden_effect = {
			every_subject_country = {
				remove_country_modifier = rahen_ministry_of_justice_dismissed
			}
		}
		define_advisor = {
			type = theologian
			skill = 2
			discount = yes
		}
		
		if = {
			limit = { has_country_modifier = rahen_deminished_despotic_rule_4 }
			remove_country_modifier = rahen_deminished_despotic_rule_4
		}
		else_if = {
			limit = { has_country_modifier = rahen_deminished_despotic_rule_3 }
			remove_country_modifier = rahen_deminished_despotic_rule_3
			add_country_modifier = {
				name = rahen_deminished_despotic_rule_4
				duration = 18250
			}
		}
		else_if = {
			limit = { has_country_modifier = rahen_deminished_despotic_rule_2 }
			remove_country_modifier = rahen_deminished_despotic_rule_2
			add_country_modifier = {
				name = rahen_deminished_despotic_rule_3
				duration = 18250
			}
		}
		else_if = {
			limit = { has_country_modifier = rahen_deminished_despotic_rule_1 }
			remove_country_modifier = rahen_deminished_despotic_rule_1
			add_country_modifier = {
				name = rahen_deminished_despotic_rule_2
				duration = 18250
			}
		}
		else_if = {
			limit = { has_country_modifier = rahen_despotic_rule }
			remove_country_modifier = rahen_despotic_rule
			add_country_modifier = {
				name = rahen_deminished_despotic_rule_1
				duration = 18250
			}
		}
		
		if = {
			limit = {
				NOT = {
					has_country_modifier = rahen_ministry_of_agriculture_dismissed
					has_country_modifier = rahen_ministry_of_infrastructure_dismissed
					has_country_modifier = rahen_ministry_of_philosophy_dismissed
					has_country_modifier = rahen_ministry_of_commerce_dismissed
					has_country_modifier = rahen_ministry_of_justice_dismissed
				}
			}
			remove_country_modifier = rahen_dismissed_ministries
		}
	}
	
	option = { #We don't need them
		ai_chance = { factor = 1 }
		name = rahenraj.31.b
		
		hidden_effect = {
			if = {
				limit = { has_country_flag = rahen_ministries_disbanded_2 }
				
				country_event = {
					id = rahenraj.32
					days = 365
					random = 365
				}
			}
			else_if = {
				limit = { has_country_flag = rahen_ministries_disbanded_1 }
				set_country_flag = rahen_ministries_disbanded_2
			}
			else = {
				set_country_flag = rahen_ministries_disbanded_1
			}
		}
	}
}
country_event = { #Collapse of the Raj
	id = rahenraj.32
	title = rahenraj.32.t
	desc = rahenraj.32.d
	picture = COURT_eventPicture
	
	trigger = { capital = 4411 }
	
	major = yes
	is_triggered_only = yes
	
	option = { #Oh boy
		ai_chance = { factor = 1 }
		name = rahenraj.32.a
		
		add_stability = -4
		every_subject_country = {
			every_owned_province = {
				add_claim = ROOT
			}
		}
		every_subject_country = {
			limit = {
				NOT = {
					AND = {
						capital_scope = { province_group = harimraj_core_lands }
						NOT = { liberty_desire = 50 }
					}
				}
			}
			grant_independence = yes
			if = {
				limit = {
					OR = {
						has_reform = great_jamindar_reform
						has_reform = jamindar_reform
					}
				}
				add_government_reform = indep_jamindar_reform
			}
		}
		every_subject_country = {
			overlord = {
				create_subject = {
					subject_type = vassal
					subject = PREV
				}
			}
		}
		4411 = {
			remove_province_modifier = rahen_corrupt_ministers
			remove_province_modifier = rahen_powerful_nobility
			remove_province_modifier = rahen_arrogant_foreign_office
			remove_province_modifier = rahen_disloyal_officers
		}
		add_government_reform = autocracy_reform
		
		hidden_effect = {
			rahen_remove_harimraj_reforms_effect = yes
			set_country_flag = rahen_corrupt_court_completed
			clr_country_flag = reformed_rahen_court
			remove_country_modifier = raj_opened_senapti_ranks
			remove_country_modifier = raj_closed_senapti_ranks
		}
	}
}

#Reform the foreign office
country_event = {
	id = rahenraj.40
	title = rahenraj.40.t
	desc = rahenraj.40.d
	picture = COURT_eventPicture
	
	trigger = { capital = 4411 }
	
	major = yes
	is_triggered_only = yes
	
	option = { #Accompany diplomats during missions
		ai_chance = { factor = 1 }
		name = rahenraj.40.a
		
		reduce_legitimacy_large_effect = yes
		add_country_modifier = {
			name = rahen_raja_accompanying_diplomatic_missions
			duration = -1
		}
	}
	option = { #Temporarily disestablish the foreign office
		ai_chance = { factor = 1 }
		name = rahenraj.40.b
		
		add_country_modifier = {
			name = rahen_dismissed_foreign_office
			duration = 18250 #50 years
		}
		remove_country_modifier = rahen_court_reformations
		4411 = { remove_province_modifier = rahen_arrogant_foreign_office }
		hidden_effect = {
			country_event = {
				id = rahenraj.41
				days = 365
				random = 1460
			}
		}
		hidden_effect = { rahen_add_completed_reforms_flag = yes }
	}
	option = { #Nevermind, this will be too disruptive
		ai_chance = { factor = 1 }
		name = rahenraj.7.c
		
		add_stability_or_adm_power = yes
		remove_country_modifier = rahen_court_reformations
	}
}
country_event = { #A group of people appears at court wanting to refound the foreign office, but they don't agree how
	id = rahenraj.41
	title = rahenraj.41.t
	desc = rahenraj.41.d
	picture = COURT_eventPicture
	
	trigger = { capital = 4411 }
	
	is_triggered_only = yes
	
	immediate = {
		hidden_effect = {
			country_event = {
				id = rahenraj.42
				days = 365
				random = 1825
			}
		}
	}
	
	option = { #A highly educated nobleman
		ai_chance = { factor = 1 }
		name = rahenraj.41.a
		
		define_advisor = {
			type = diplomat
			skill = 2
			discount = yes
		}
		add_estate_influence_modifier = {
			estate = estate_nobles 
			desc = EST_VAL_RAHEN_DIPLOMATIC_CORPS_FOUNDER
			influence = 10
			duration = 18250 #50 years
		}
	}
	option = { #A wise wizard
		ai_chance = { factor = 1 }
		name = rahenraj.41.b
		
		define_advisor = {
			type = diplomat
			skill = 2
			discount = yes
		}
		add_estate_influence_modifier = {
			estate = estate_mages 
			desc = EST_VAL_RAHEN_DIPLOMATIC_CORPS_FOUNDER
			influence = 10
			duration = 18250 #50 years
		}
	}
	option = { #A philosopher and rhetorician
		ai_chance = { factor = 1 }
		name = rahenraj.41.c
		
		define_advisor = {
			type = diplomat
			skill = 2
			discount = yes
		}
		add_estate_influence_modifier = {
			estate = estate_church
			desc = EST_VAL_RAHEN_DIPLOMATIC_CORPS_FOUNDER
			influence = 10
			duration = 18250 #50 years
		}
	}
	option = { #A well travelled merchant
		ai_chance = { factor = 1 }
		name = rahenraj.41.dd
		
		define_advisor = {
			type = diplomat
			skill = 2
			discount = yes
		}
		add_estate_influence_modifier = {
			estate = estate_burghers
			desc = EST_VAL_RAHEN_DIPLOMATIC_CORPS_FOUNDER
			influence = 10
			duration = 18250 #50 years
		}
	}
	option = { #A charming bard
		ai_chance = { factor = 1 }
		name = rahenraj.41.e
		
		define_advisor = {
			type = diplomat
			skill = 2
			female = yes
			discount = yes
		}
		add_estate_influence_modifier = {
			estate = estate_adventurers 
			desc = EST_VAL_RAHEN_DIPLOMATIC_CORPS_FOUNDER
			influence = 10
			duration = 18250 #50 years
		}
	}
}
country_event = { #We're starting to get recruits
	id = rahenraj.42
	title = rahenraj.42.t
	desc = rahenraj.42.d
	picture = COURT_eventPicture
	
	trigger = { capital = 4411 }
	
	is_triggered_only = yes
	
	immediate = {
		hidden_effect = {
			country_event = {
				id = rahenraj.43
				days = 1825
				random = 3650
			}
		}
	}
	
	option = { #Start educating them
		ai_chance = { factor = 1 }
		name = rahenraj.42.a
		
		if = {
			limit = { has_estate_influence_modifier = { estate = estate_nobles modifier = EST_VAL_RAHEN_DIPLOMATIC_CORPS_FOUNDER  } }
			add_country_modifier = {
				name = rahen_noble_diplomats
				duration = 18250 #50 years
			}
		}
		else_if = {
			limit = { has_estate_influence_modifier = { estate = estate_mages modifier = EST_VAL_RAHEN_DIPLOMATIC_CORPS_FOUNDER  } }
			add_country_modifier = {
				name = rahen_wizard_diplomats
				duration = 18250 #50 years
			}
		}
		else_if = {
			limit = { has_estate_influence_modifier = { estate = estate_church modifier = EST_VAL_RAHEN_DIPLOMATIC_CORPS_FOUNDER  } }
			add_country_modifier = {
				name = rahen_philosopher_diplomats
				duration = 18250 #50 years
			}
		}
		else_if = {
			limit = { has_estate_influence_modifier = { estate = estate_burghers modifier = EST_VAL_RAHEN_DIPLOMATIC_CORPS_FOUNDER  } }
			add_country_modifier = {
				name = rahen_merchant_diplomats
				duration = 18250 #50 years
			}
		}
		else_if = {
			limit = { has_estate_influence_modifier = { estate = estate_adventurers modifier = EST_VAL_RAHEN_DIPLOMATIC_CORPS_FOUNDER  } }
			add_country_modifier = {
				name = rahen_adventurer_diplomats
				duration = 18250 #50 years
			}
		}
	}
}
country_event = { #Our corps is slowly shaping up
	id = rahenraj.43
	title = rahenraj.43.t
	desc = rahenraj.43.d
	picture = COURT_eventPicture
	
	trigger = { capital = 4411 }
	
	is_triggered_only = yes
	
	immediate = {
		hidden_effect = {
			country_event = {
				id = rahenraj.44
				days = 730
				random = 1825
			}
		}
	}
	
	option = { #Let's start sending out our first fully trained diplomats
		ai_chance = { factor = 1 }
		name = rahenraj.43.a
		
		add_country_modifier = {
			name = rahen_burgeoning_diplomatic_corps
			duration = 18250 #50 years
		}
	}
}
country_event = { #Now to develop the rest of our corps
	id = rahenraj.44
	title = rahenraj.44.t
	desc = rahenraj.44.d
	picture = COURT_eventPicture
	
	trigger = { capital = 4411 }
	
	is_triggered_only = yes
	
	immediate = {
		hidden_effect = {
			country_event = {
				id = rahenraj.45
				days = 730
				random = 1825
			}
		}
	}
	
	option = { #We want the best
		ai_chance = { factor = 1 }
		name = rahenraj.44.a
		
		remove_country_modifier = rahen_burgeoning_diplomatic_corps
		add_country_modifier = {
			name = rahen_developed_diplomatic_corps
			duration = 18250 #50 years
		}
	}
}
country_event = { #Talking to the world properly again
	id = rahenraj.45
	title = rahenraj.45.t
	desc = rahenraj.45.d
	picture = COURT_eventPicture
	
	trigger = { capital = 4411 }
	
	is_triggered_only = yes
	
	option = { #Now we can return to a normal state of foreign relations
		ai_chance = { factor = 1 }
		name = rahenraj.45.a
		
		remove_country_modifier = rahen_noble_diplomats
		remove_country_modifier = rahen_wizard_diplomats
		remove_country_modifier = rahen_philosopher_diplomats
		remove_country_modifier = rahen_merchant_diplomats
		remove_country_modifier = rahen_adventurer_diplomats
		
		remove_country_modifier = rahen_developed_diplomatic_corps
		remove_country_modifier = rahen_dismissed_foreign_office
		if = {
			limit = { has_estate_influence_modifier = { estate = estate_nobles modifier = EST_VAL_RAHEN_DIPLOMATIC_CORPS_FOUNDER  } }
			add_country_modifier = {
				name = rahen_noble_foreign_office
				duration = 9125 #25 years
			}
		}
		else_if = {
			limit = { has_estate_influence_modifier = { estate = estate_mages modifier = EST_VAL_RAHEN_DIPLOMATIC_CORPS_FOUNDER  } }
			add_country_modifier = {
				name = rahen_wizard_foreign_office
				duration = 9125 #25 years
			}
		}
		else_if = {
			limit = { has_estate_influence_modifier = { estate = estate_church modifier = EST_VAL_RAHEN_DIPLOMATIC_CORPS_FOUNDER  } }
			add_country_modifier = {
				name = rahen_philosopher_foreign_office
				duration = 9125 #25 years
			}
		}
		else_if = {
			limit = { has_estate_influence_modifier = { estate = estate_burghers modifier = EST_VAL_RAHEN_DIPLOMATIC_CORPS_FOUNDER  } }
			add_country_modifier = {
				name = rahen_merchant_foreign_office
				duration = 9125 #25 years
			}
		}
		else_if = {
			limit = { has_estate_influence_modifier = { estate = estate_adventurers modifier = EST_VAL_RAHEN_DIPLOMATIC_CORPS_FOUNDER  } }
			add_country_modifier = {
				name = rahen_adventurer_foreign_office
				duration = 9125 #25 years
			}
		}
	}
}

country_event = { #The Raja speaks to the court of [raja_visiting_court.GetName]
	id = rahenraj.46
	title = rahenraj.46.t
	desc = rahenraj.46.d
	picture = COURT_eventPicture
	
	is_triggered_only = yes
	
	trigger = { has_country_modifier = rahen_raja_accompanying_diplomatic_missions }
	
	immediate = {
		hidden_effect = {
			random_known_country = {
				limit = {
					NOT = { is_rival = ROOT historical_rival_with = ROOT }
					NOT = {
						has_opinion_modifier = {
							who = ROOT
							modifier = rahen_raja_personal_visit
						}
						has_opinion_modifier = {
							who = ROOT
							modifier = rahen_raja_personal_insult
						}
					}
					NOT = { has_country_modifier = monstrous_nation }
				}
				save_global_event_target_as = raja_visiting_court
			}
		}
	}
	
	option = { #Let's forge some relations
		ai_chance = { factor = 1 }
		name = rahenraj.46.a
		
		trigger = {
			OR = {
				ruler_has_personality	= silver_tongue_personality
				ruler_has_personality	= charismatic_negotiator_personality
				ruler_has_personality	= careful_personality
				ruler_has_personality	= well_connected_personality
				dip = 6
			}
		}
		
		random_list = {
			60 = {
				country_event = { id = rahenraj.47 days = 1 }
			}
			38 = {
				country_event = { id = rahenraj.48 days = 1 }
			}
			2 = {
				country_event = { id = rahenraj.49 days = 1 }
			}
		}
	}
	option = { #I'd fuck her
		ai_chance = { factor = 1 }
		name = rahenraj.46.b
		
		trigger = {
			OR = {
				ruler_has_personality	= loose_lips_personality
				ruler_has_personality	= babbling_buffoon_personality
				ruler_has_personality	= fertile_personality
				ruler_has_personality	= drunkard_personality
				ruler_has_personality	= sinner_personality
				NOT = { dip = 2 }
			}
		}
		
		random_list = {
			10 = {
				country_event = { id = rahenraj.47 days = 1 }
			}
			50 = {
				country_event = { id = rahenraj.48 days = 1 }
			}
			40 = {
				country_event = { id = rahenraj.49 days = 1 }
			}
		}
	}
	option = { #Time to show those idiots how you negotiate
		ai_chance = { factor = 1 }
		name = rahenraj.46.c
		
		trigger = {
			OR = {
				ruler_has_personality	= malevolent_personality
				ruler_has_personality	= intricate_web_weaver_personality
				ruler_has_personality	= strict_personality
				ruler_has_personality	= fierce_negotiator_personality
				ruler_has_personality	= cruel_personality
			}
		}
		
		random_list = {
			45 = {
				country_event = { id = rahenraj.47 days = 1 }
			}
			40 = {
				country_event = { id = rahenraj.48 days = 1 }
			}
			15 = {
				country_event = { id = rahenraj.49 days = 1 }
			}
		}
	}
	option = { #Let's just go meet them
		ai_chance = { factor = 1 }
		name = rahenraj.46.dd
		
		trigger = {
			NOT = {
				ruler_has_personality	= malevolent_personality
				ruler_has_personality	= intricate_web_weaver_personality
				ruler_has_personality	= strict_personality
				ruler_has_personality	= fierce_negotiator_personality
				ruler_has_personality	= cruel_personality
				
				ruler_has_personality	= loose_lips_personality
				ruler_has_personality	= babbling_buffoon_personality
				ruler_has_personality	= fertile_personality
				ruler_has_personality	= drunkard_personality
				ruler_has_personality	= sinner_personality
				NOT = { dip = 2 }
				
				ruler_has_personality	= silver_tongue_personality
				ruler_has_personality	= charismatic_negotiator_personality
				ruler_has_personality	= careful_personality
				ruler_has_personality	= well_connected_personality
				dip = 6
			}
		}
		
		random_list = {
			30 = {
				country_event = { id = rahenraj.47 days = 1 }
			}
			65 = {
				country_event = { id = rahenraj.48 days = 1 }
			}
			5 = {
				country_event = { id = rahenraj.49 days = 1 }
			}
		}
	}
}
country_event = { #Great diplomatic success in [raja_visiting_court.GetName]
	id = rahenraj.47
	title = rahenraj.47.t
	desc = rahenraj.47.d
	picture = COURT_eventPicture
	
	is_triggered_only = yes
	
	option = { #See, that's how you do it.
		ai_chance = { factor = 1 }
		name = rahenraj.47.a
		
		event_target:raja_visiting_court = { add_opinion = { who = ROOT modifier = rahen_raja_personal_visit } }
		if = {
			limit = { has_country_modifier = rahen_raja_restored_court_reputation_5 }
			country_event = { id = rahenraj.93 days = 5 }
		}
		else_if = {
			limit = { has_country_modifier = rahen_raja_restored_court_reputation_4 }
			remove_country_modifier = rahen_raja_restored_court_reputation_4
			add_country_modifier = { name = rahen_raja_restored_court_reputation_5 duration = -1 }
		}
		else_if = {
			limit = { has_country_modifier = rahen_raja_restored_court_reputation_3 }
			remove_country_modifier = rahen_raja_restored_court_reputation_3
			add_country_modifier = { name = rahen_raja_restored_court_reputation_4 duration = -1 }
		}
		else_if = {
			limit = { has_country_modifier = rahen_raja_restored_court_reputation_2 }
			remove_country_modifier = rahen_raja_restored_court_reputation_2
			add_country_modifier = { name = rahen_raja_restored_court_reputation_3 duration = -1 }
		}
		else_if = {
			limit = { has_country_modifier = rahen_raja_restored_court_reputation_1 }
			remove_country_modifier = rahen_raja_restored_court_reputation_1
			add_country_modifier = { name = rahen_raja_restored_court_reputation_2 duration = -1 }
		}
		else = {
			add_country_modifier = { name = rahen_raja_restored_court_reputation_1 duration = -1 }
		}
		hidden_effect = {
			event_target:raja_visiting_court = {
				country_event = { id = rahenraj.90 }
			}
		}
	}
}
country_event = { #Diplomatic visit to [raja_visiting_court.GetName]
	id = rahenraj.48
	title = rahenraj.48.t
	desc = rahenraj.48.d
	picture = COURT_eventPicture
	
	is_triggered_only = yes
	
	option = { #That went well enough
		ai_chance = { factor = 1 }
		name = rahenraj.48.a
		
		event_target:raja_visiting_court = { add_opinion = { who = ROOT modifier = rahen_raja_personal_visit } }
		hidden_effect = {
			event_target:raja_visiting_court = {
				country_event = { id = rahenraj.91 }
			}
		}
	}
}
country_event = { #Diplomatic blunder in [raja_visiting_court.GetName]
	id = rahenraj.49
	title = rahenraj.49.t
	desc = rahenraj.49.d
	picture = COURT_eventPicture
	
	is_triggered_only = yes
	
	option = { #Whoops.
		ai_chance = { factor = 1 }
		name = rahenraj.49.a
		
		event_target:raja_visiting_court = {
			add_opinion = { who = ROOT modifier = rahen_raja_personal_insult }
			add_casus_belli = {
				target = ROOT
				type = cb_insult
				months = 12
			}
		}
		add_country_modifier = { name = rahen_raja_diplomatic_blunder duration = 365 }
		hidden_effect = {
			event_target:raja_visiting_court = {
				country_event = { id = rahenraj.92 }
			}
		}
	}
}


#Reform the Nobility
country_event = {
	id = rahenraj.50
	title = rahenraj.50.t
	desc = rahenraj.50.d
	picture = COURT_eventPicture
	
	trigger = { capital = 4411 }
	
	major = yes
	is_triggered_only = yes
	
	option = { #Demand oaths of fealty and appoint successors
		ai_chance = { factor = 1 }
		name = rahenraj.50.a
		
		hidden_effect = {	
			country_event = {
				id = rahenraj.51
				days = 7
			}
		}
	}
	#option = { #Make a tour of the provinces
	#	ai_chance = { factor = 1 }
	#	name = rahenraj.50.b
	#	
	#	hidden_effect = {
	#		country_event = {
	#			id = rahenraj.51
	#			days = 30
	#		}
	#	}
	#}
	option = { #Nevermind, this will be too disruptive
		ai_chance = { factor = 0 }
		name = rahenraj.7.c
		
		add_stability_or_adm_power = yes
		remove_country_modifier = rahen_court_reformations
	}
}
country_event = { #Hosting a national banquet and demand oaths of fealty
	id = rahenraj.51
	title = rahenraj.51.t
	desc = rahenraj.51.d
	picture = COURT_eventPicture
	
	trigger = { capital = 4411 }
	
	major = yes
	is_triggered_only = yes
	
	option = { #They will come to court or they are traitors
		ai_chance = { factor = 1 }
		name = rahenraj.51.a
		
		hidden_effect = {	
			every_subject_country = {
				country_event = {
					id = rahenraj.52
					days = 30
					random = 30
				}
			}
		
			country_event = {
				id = rahenraj.53
				days = 120
				random = 60
			}
		}
	}
}
country_event = { #The Raja demands we visit court to pledge our allegiance, he also wishes to appoint our heir
	id = rahenraj.52
	title = rahenraj.52.t
	desc = rahenraj.52.d
	picture = COURT_eventPicture
	
	is_triggered_only = yes
	
	option = { #We will bow down to the Raja's will
		ai_chance = { factor = 10 }
		name = rahenraj.52.a
		
		define_heir = {
			dynasty = ROOT
			age = 23
			adm = 3
			dip = 3
			mil = 3
			claim = 50
		}
	}
	option = { #Who does he think he is? He can come take our oath by force if he wants it!
		ai_chance = {
			factor = 1
			modifier = {
				factor = 0
				NOT = { liberty_desire = 30 }
			}
			modifier = {
				factor = 10
				liberty_desire = 50
			}
			modifier = {
				factor = 10
				liberty_desire = 80
			}
		}
		name = rahenraj.52.b
		hidden_effect = {
			overlord = { save_event_target_as = current_raja }
		}
		add_stability = -3
		add_government_reform = indep_jamindar_reform
		declare_war_with_cb = {
			who = event_target:current_raja
			casus_belli = cb_independence_war
		}
	}
}
country_event = { #All our subjects have either come and declared their oath, or they have proven their disloyalty
	id = rahenraj.53
	title = rahenraj.53.t
	desc = rahenraj.53.d
	picture = COURT_eventPicture
	
	trigger = { capital = 4411 }
	
	is_triggered_only = yes
	
	option = { #Good
		ai_chance = { factor = 1 }
		name = rahenraj.53.a
		
		remove_country_modifier = rahen_court_reformations
		4411 = { remove_province_modifier = rahen_powerful_nobility }
		add_country_modifier = {
			name = rahen_loyal_nobility
			duration = 9125 #25 years
		}
		hidden_effect = { rahen_add_completed_reforms_flag = yes }
	}
}

country_event = { #The Raja visited our court and was real nice!
	id = rahenraj.90
	title = rahenraj.90.t
	desc = rahenraj.90.d
	picture = COURT_eventPicture
	
	
	is_triggered_only = yes
	
	option = { #Great!
		ai_chance = { factor = 1 }
		name = rahenraj.90.a
		
		add_prestige = 25
	}
}
country_event = { #The Raja visited our court!
	id = rahenraj.91
	title = rahenraj.91.t
	desc = rahenraj.91.d
	picture = COURT_eventPicture
	
	is_triggered_only = yes
	
	option = { #Great!
		ai_chance = { factor = 1 }
		name = rahenraj.91.a
		
		add_prestige = 10
	}
}
country_event = { #The Raja visited our court and was the worst guest!
	id = rahenraj.92
	title = rahenraj.92.t
	desc = rahenraj.92.d
	picture = ACCUSATION_eventPicture
	
	is_triggered_only = yes
	
	option = { #Typical
		ai_chance = { factor = 1 }
		name = rahenraj.92.a
		
		add_prestige = -5
	}
}
country_event = { #The Raja has set an example for our foreign office, they'll learn from this.
	id = rahenraj.93
	title = rahenraj.93.t
	desc = rahenraj.93.d
	picture = ACCUSATION_eventPicture
	
	is_triggered_only = yes
	
	option = { #They better
		ai_chance = { factor = 1 }
		name = rahenraj.93.a
		
		remove_country_modifier = rahen_raja_accompanying_diplomatic_missions
		remove_country_modifier = rahen_raja_restored_court_reputation_5
		remove_country_modifier = rahen_court_reformations
		4411 = { remove_province_modifier = rahen_arrogant_foreign_office }
		add_ruler_modifier = { name = rahen_raja_of_the_foreign_courts duration = -1 }
		hidden_effect = { rahen_add_completed_reforms_flag = yes }
	}
}


country_event = { #The Court has finally been reformed
	id = rahenraj.97
	title = rahenraj.97.t
	desc = rahenraj.97.d
	picture = COURT_eventPicture
	
	is_triggered_only = yes
	trigger = { has_country_flag = reformed_rahen_court }
	
	option = { #Shit
		ai_chance = { factor = 1 }
		name = rahenraj.97.a
		
		add_government_reform = restructured_dhenijansari_court_reform
		add_country_modifier = {
			name = rahen_curtailed_courts
			duration = 9125 #25 years
		}
		hidden_effect = {
			clr_country_flag = rahen_ministries_disbanded_1
			clr_country_flag = rahen_ministries_disbanded_2
			set_country_flag = rahen_corrupt_court_completed
		}
	}
}
country_event = { #The Court is completely out of our control
	id = rahenraj.98
	title = rahenraj.98.t
	desc = rahenraj.98.d
	picture = COURT_eventPicture
	
	trigger = { capital = 4411 }
	
	major = yes
	is_triggered_only = yes
	
	option = { #How dare they disobey me!
		ai_chance = { factor = 1 }
		name = rahenraj.98.a
		
		reduce_legitimacy_huge_effect = yes
	}
}
country_event = { #The Court has finally been reformed
	id = rahenraj.99
	title = rahenraj.99.t
	desc = rahenraj.99.d
	picture = COURT_eventPicture
	
	is_triggered_only = yes
	hidden = yes
	
	option = { #Grand!
		ai_chance = { factor = 1 }
		name = rahenraj.99.a
		
		set_country_flag = rahen_corrupt_court_completed
		country_event = {
			id = rahenraj.97
			days = 5
		}
	}
}

#########################
### Random Raj Events ###
#########################

country_event = { #Someone relieved our treasury of some gold
	id = rahenraj.100
	title = rahenraj.100.t
	desc = rahenraj.100.d
	picture = ACCUSATION_eventPicture
	
	is_triggered_only = yes
	
	option = { #Not now
		ai_chance = { factor = 1 }
		name = rahenraj.100.a
		
		add_years_of_income = -0.5
	}
}
country_event = { #Blackmailed by a courtier
	id = rahenraj.101
	title = rahenraj.101.t
	desc = rahenraj.101.d
	picture = ACCUSATION_eventPicture
	
	is_triggered_only = yes
	
	option = { #Give in
		ai_chance = { factor = 1 }
		name = rahenraj.101.a
		
		add_corruption = 1
	}
	option = { #Refuse
		ai_chance = {
			factor = 1
			modifier = {
				factor = 10
				stability = 1
			}
			modifier = {
				factor = 10
				NOT = { stability = -2 }
			}
		}
		name = rahenraj.101.b
		
		reduce_stability_or_adm_power = yes
		add_corruption = -0.5
	}
}
country_event = { #A band of adventurers offers aid in rooting out corruption
	id = rahenraj.102
	title = rahenraj.102.t
	desc = rahenraj.102.d
	picture = ACCUSATION_eventPicture
	
	is_triggered_only = yes
	
	trigger = { NOT = { has_estate_influence_modifier = { estate = estate_adventurers modifier = EST_VAL_ADVENTURER_RAHEN_ACCEPTED_AID } } }
	
	option = { #Take them up on their offer
		ai_chance = { factor = 10 }
		name = rahenraj.102.a
		
		add_corruption = -0.2
		add_estate_influence_modifier = {
			estate = estate_adventurers 
			desc = EST_VAL_ADVENTURER_RAHEN_ACCEPTED_AID
			influence = 20
			duration = 1825
		}
	}
	option = { #Deny them
		ai_chance = { factor = 1 }
		name = rahenraj.102.b
		
		increase_legitimacy_medium_effect = yes
	}
}
country_event = { #The nobility offers aid stabalising the country
	id = rahenraj.103
	title = rahenraj.103.t
	desc = rahenraj.103.d
	picture = ACCUSATION_eventPicture
	
	is_triggered_only = yes
	
	trigger = { NOT = { has_estate_influence_modifier = { estate = estate_nobles modifier = EST_VAL_NOBLES_RAHEN_NOBLE_APPEASEMENT } } }
	
	option = { #Take them up on their offer
		ai_chance = { factor = 1 }
		name = rahenraj.103.a
		
		add_stability_or_adm_power = yes
		add_corruption = 1
		add_estate_influence_modifier = {
			estate = estate_nobles 
			desc = EST_VAL_NOBLES_RAHEN_NOBLE_APPEASEMENT
			influence = 20
			duration = 1825
		}
	}
	option = { #Deny them
		ai_chance = {
			factor = 1
			modifier = {
				factor = 10
				stability = 0
			}
		}
		name = rahenraj.103.b
		
		add_corruption = -0.2
	}
}
country_event = { #The Merchants offer monetary aid
	id = rahenraj.104
	title = rahenraj.104.t
	desc = rahenraj.104.d
	picture = ACCUSATION_eventPicture
	
	is_triggered_only = yes
	
	trigger = { NOT = { has_estate_influence_modifier = { estate = estate_burghers modifier = EST_VAL_MERCHANTS_RAHEN_MONETARY_AID } } }
	
	option = { #Take them up on their offer
		ai_chance = { factor = 1 }
		name = rahenraj.104.a
		
		add_years_of_income = 1
		add_corruption = 1
		add_estate_influence_modifier = {
			estate = estate_burghers 
			desc = EST_VAL_MERCHANTS_RAHEN_MONETARY_AID
			influence = 20
			duration = 1825
		}
	}
	option = { #Deny them
		ai_chance = {
			factor = 1
			modifier = {
				factor = 10
				NOT = { num_of_loans = 1 }
			}
		}
		name = rahenraj.104.b
		
		add_corruption = -0.2
	}
}
country_event = { #Ministers demand more privileges
	id = rahenraj.105
	title = rahenraj.105.t
	desc = rahenraj.105.d
	picture = ACCUSATION_eventPicture
	
	is_triggered_only = yes
	
	option = { #Give them what they want
		ai_chance = { factor = 1 }
		name = rahenraj.105.a
		
		add_corruption = 1
	}
	option = { #This has to end
		ai_chance = {
			factor = 1
			modifier = {
				factor = 10
				manpower_percentage = 0.1
			}
		}
		name = rahenraj.105.b
		
		4411 = {
			spawn_rebels = {
				type = pretender_rebels
				size = 1
			}
		}
		add_corruption = -0.5
	}
}
country_event = { #Ruler Poisoned
	id = rahenraj.106
	title = rahenraj.106.t
	desc = rahenraj.106.d
	picture = KING_SICK_IN_BED_eventPicture
	
	is_triggered_only = yes
	
	option = { #May he be strong
		ai_chance = { factor = 1 }
		name = rahenraj.106.a
		
		random_list = {
			75 = { kill_ruler = yes }
			25 = {  }
		}
	}
}
country_event = { #Honest courtiers replace the corrupt
	id = rahenraj.107
	title = rahenraj.107.t
	desc = rahenraj.107.d
	picture = COURT_eventPicture
	
	is_triggered_only = yes
	
	trigger = {
		corruption = 10
		4411 = { NOT = { has_province_modifier = rahen_corrupt_ministers has_province_modifier = rahen_powerful_nobility has_province_modifier = rahen_arrogant_foreign_office has_province_modifier = rahen_disloyal_officers } }
	}
	
	option = { #Finally some cooperation
		ai_chance = { factor = 1 }
		name = rahenraj.107.a
		
		add_corruption = -1
	}
}

##################################
### Collapse of the Raj Events ###
##################################

country_event = { #Collapse of the Raj
	id = rahenraj.200
	title = rahenraj.200.t
	desc = rahenraj.200.d
	picture = COURT_eventPicture
	
	major = yes
	is_triggered_only = yes
	
	trigger = { corruption = 60 }
	
	option = { #It was inevitable
		ai_chance = { factor = 1 }
		name = rahenraj.200.a
		
		add_stability = -4
		every_subject_country = {
			every_owned_province = {
				add_claim = ROOT
			}
		}
		every_subject_country = {
			limit = {
				NOT = {
					AND = {
						capital_scope = { province_group = harimraj_core_lands }
						NOT = { liberty_desire = 50 }
					}
				}
			}
			grant_independence = yes
			if = {
				limit = {
					OR = {
						has_reform = great_jamindar_reform
						has_reform = jamindar_reform
					}
				}
				add_government_reform = indep_jamindar_reform
			}
		}
		every_subject_country = {
			overlord = {
				create_subject = {
					subject_type = vassal
					subject = PREV
				}
			}
		}
		4411 = {
			remove_province_modifier = rahen_corrupt_ministers
			remove_province_modifier = rahen_powerful_nobility
			remove_province_modifier = rahen_arrogant_foreign_office
			remove_province_modifier = rahen_disloyal_officers
		}
		add_government_reform = autocracy_reform
		
		hidden_effect = {
			rahen_remove_harimraj_reforms_effect = yes
			set_country_flag = rahen_corrupt_court_completed
			clr_country_flag = reformed_rahen_court
			remove_country_modifier = raj_opened_senapti_ranks
			remove_country_modifier = raj_closed_senapti_ranks
		}
	}
}
country_event = { #Control over [rahenraj_slipping_vassal.GetName] slipping away
	id = rahenraj.201
	title = rahenraj.201.t
	desc = rahenraj.201.d
	picture = COURT_eventPicture
	
	is_triggered_only = yes
	
	trigger = { corruption = 50 }
	
	immediate = {
		if = {
			limit = {
				any_subject_country = { liberty_desire = 80 }
			}
			random_subject_country = {
				limit = {
					liberty_desire = 80
				}
				save_event_target_as = rahenraj_slipping_vassal
			}
		}
		else_if = {
			limit = {
				any_subject_country = { liberty_desire = 60 }
			}
			random_subject_country = {
				limit = {
					liberty_desire = 60
				}
				save_event_target_as = rahenraj_slipping_vassal
			}
		}
		else_if = {
			limit = {
				any_subject_country = { liberty_desire = 40 }
			}
			random_subject_country = {
				limit = {
					liberty_desire = 40
				}
				save_event_target_as = rahenraj_slipping_vassal
			}
		}
	}
	
	option = { #Why aren't they listening?!
		ai_chance = { factor = 1 }
		name = rahenraj.201.a
		
		event_target:rahenraj_slipping_vassal = {
			grant_independence = yes
			if = {
				limit = {
					OR = {
						has_reform = great_jamindar_reform
						has_reform = jamindar_reform
					}
				}
				add_government_reform = indep_jamindar_reform
			}
		}
	}
}


#####################################
### General Raj Management Extras ###
#####################################

country_event = {
	id = rahenraj.1000
	title = rahenraj.1000.t
	desc = rahenraj.1000.d
	picture = COURT_eventPicture

	hidden = yes
	is_triggered_only = yes
	
	trigger = {
		OR = {
			AND = {
				is_subject_of_type = daimyo_vassal
				NOT = { has_reform = jamindar_reform }
			}
			AND = {
				is_subject_of_type = great_daimyo_vassal
				NOT = { has_reform = great_jamindar_reform }
			}
		}
	}
	
	immediate = {
		if = {
			limit = {
				is_subject_of_type = daimyo_vassal
				NOT = { has_reform = jamindar_reform }
			}
			add_government_reform = jamindar_reform
		}
		else = {
			add_government_reform = great_jamindar_reform
		}
	}
	
	option = {
		ai_chance = { factor = 1 }
		name = rahenraj.1000.a
	}
}
#Open or Closed Senapti Ranks?
country_event = {
	id = rahenraj.1001
	title = rahenraj.1001.t
	desc = rahenraj.1001.d
	picture = COURT_eventPicture

	is_triggered_only = yes

	option = { #Only our own can be Senapti
		ai_chance = { factor = 20 }
		name = rahenraj.1001.b
		trigger = { OR = { culture_group = harimari culture_group_is_human = yes } }
		add_country_modifier = {
			name = raj_closed_senapti_ranks
			duration = -1
		}
		custom_tooltip = rahen_close_senapti_ranks_tt
		hidden_effect = {
			if = {
				limit = { culture_group = harimari }
				every_subject_country = {
					limit = { ruler_is_harimari = yes }
					add_opinion = {
						who = ROOT
						modifier = rahen_raja_closed_senapti_a
					}
				}
				every_subject_country = {
					limit = { NOT = { ruler_is_harimari = yes } }
					add_opinion = {
						who = ROOT
						modifier = rahen_raja_closed_senapti_b
					}
				}
			}
			if = {
				limit = { culture_group_is_human = yes }
				every_subject_country = {
					limit = { ruler_is_human = yes }
					add_opinion = {
						who = ROOT
						modifier = rahen_raja_closed_senapti_a
					}
				}
				every_subject_country = {
					limit = { NOT = { ruler_is_human = yes } }
					add_opinion = {
						who = ROOT
						modifier = rahen_raja_closed_senapti_b
					}
				}
			}
		}
	}
	option = { #Open Senapti ranks to all
		ai_chance = { factor = 1 }
		name = rahenraj.1001.a
		add_country_modifier = {
			name = raj_opened_senapti_ranks
			duration = -1
		}
		add_stability = -1
		custom_tooltip = rahen_open_up_senapti_ranks_tt
		hidden_effect = {
			if = {
				limit = { culture_group = harimari }
				every_subject_country = {
					limit = { ruler_is_harimari = yes }
					add_opinion = {
						who = ROOT
						modifier = rahen_raja_opened_up_senapti_b
					}
				}
				every_subject_country = {
					limit = { NOT = { ruler_is_harimari = yes } }
					add_opinion = {
						who = ROOT
						modifier = rahen_raja_opened_up_senapti_a
					}
				}
			}
			if = {
				limit = { culture_group_is_human = yes }
				every_subject_country = {
					limit = { ruler_is_human = yes }
					add_opinion = {
						who = ROOT
						modifier = rahen_raja_opened_up_senapti_b
					}
				}
				every_subject_country = {
					limit = { NOT = { ruler_is_human = yes } }
					add_opinion = {
						who = ROOT
						modifier = rahen_raja_opened_up_senapti_a
					}
				}
			}
		}
	}
}
